SpeciesIDDesc,BreedIDDesc,GenderIDDesc,vaccination_yrs,WhereBittenIDDesc,Quarantine
DOG,UNKNOWN,FEMALE,1,BODY,yes
DOG,UNKNOWN,UNKNOWN,0,BODY,yes
DOG,UNKNOWN,MALE,0,BODY,yes
DOG,UNKNOWN,FEMALE,0,BODY,yes
DOG,UNKNOWN,UNKNOWN,0,BODY,yes
DOG,UNKNOWN,MALE,0,HEAD,yes
DOG,UNKNOWN,FEMALE,0,HEAD,yes
CAT,UNKNOWN,UNKNOWN,0,HEAD,yes
DOG,UNKNOWN,FEMALE,0,BODY,yes
CAT,UNKNOWN,UNKNOWN,0,BODY,yes
CAT,UNKNOWN,FEMALE,0,BODY,yes
DOG,UNKNOWN,MALE,1,BODY,yes
DOG,UNKNOWN,UNKNOWN,0,HEAD,yes
DOG,UNKNOWN,MALE,1,HEAD,yes
DOG,UNKNOWN,FEMALE,3,BODY,yes
DOG,UNKNOWN,MALE,3,BODY,yes
CAT,UNKNOWN,MALE,1,BODY,yes
DOG,UNKNOWN,MALE,3,HEAD,yes
DOG,UNKNOWN,FEMALE,1,HEAD,yes
DOG,UNKNOWN,UNKNOWN,1,BODY,yes
DOG,UNKNOWN,FEMALE,3,HEAD,yes
DOG,UNKNOWN,MALE,3,HEAD,yes
DOG,UNKNOWN,MALE,0,BODY,yes
CAT,UNKNOWN,FEMALE,1,BODY,yes
CAT,UNKNOWN,MALE,0,BODY,yes
CAT,UNKNOWN,FEMALE,0,HEAD,yes
CAT,UNKNOWN,MALE,1,HEAD,yes
DOG,UNKNOWN,UNKNOWN,0,BODY,yes
CAT,UNKNOWN,UNKNOWN,1,BODY,yes
DOG,UNKNOWN,UNKNOWN,0,HEAD,yes
DOG,UNKNOWN,MALE,0,HEAD,yes
DOG,UNKNOWN,UNKNOWN,0,HEAD,yes
BAT,UNKNOWN,UNKNOWN,0,BODY,no
CAT,UNKNOWN,MALE,0,HEAD,yes
CAT,UNKNOWN,UNKNOWN,0,BODY,yes
DOG,UNKNOWN,MALE,1,BODY,yes
DOG,UNKNOWN,UNKNOWN,3,BODY,yes
DOG,UNKNOWN,UNKNOWN,0,HEAD,yes
DOG,UNKNOWN,MALE,0,BODY,yes
RACCOON,UNKNOWN,UNKNOWN,0,BODY,yes
DOG,UNKNOWN,MALE,2,BODY,yes
DOG,UNKNOWN,FEMALE,2,BODY,yes
CAT,UNKNOWN,FEMALE,0,BODY,yes
DOG,UNKNOWN,FEMALE,0,HEAD,yes
DOG,UNKNOWN,UNKNOWN,0,BODY,yes
DOG,UNKNOWN,MALE,3,BODY,yes
CAT,UNKNOWN,MALE,3,BODY,yes
CAT,UNKNOWN,FEMALE,3,BODY,yes
DOG,UNKNOWN,MALE,11,BODY,yes
CAT,UNKNOWN,UNKNOWN,0,BODY,yes
BAT,UNKNOWN,UNKNOWN,0,BODY,no
CAT,UNKNOWN,FEMALE,0,BODY,yes
DOG,UNKNOWN,FEMALE,3,BODY,yes
DOG,UNKNOWN,MALE,0,HEAD,yes
CAT,UNKNOWN,MALE,1,BODY,yes
DOG,UNKNOWN,FEMALE,0,BODY,yes
OTHER,UNKNOWN,UNKNOWN,0,BODY,yes
CAT,UNKNOWN,UNKNOWN,0,HEAD,yes
OTHER,UNKNOWN,UNKNOWN,0,HEAD,yes
DOG,UNKNOWN,UNKNOWN,1,HEAD,yes
DOG,UNKNOWN,FEMALE,1,BODY,yes
DOG,UNKNOWN,UNKNOWN,0,BODY,yes
DOG,'GERM SHEPHERD',UNKNOWN,0,BODY,no
DOG,UNKNOWN,UNKNOWN,3,BODY,yes
DOG,DACHSHUND,MALE,1,BODY,yes
DOG,'PIT BULL',UNKNOWN,0,BODY,no
CAT,UNKNOWN,UNKNOWN,0,BODY,yes
CAT,UNKNOWN,FEMALE,0,BODY,yes
CAT,UNKNOWN,MALE,0,BODY,yes
DOG,UNKNOWN,MALE,0,BODY,yes
CAT,UNKNOWN,UNKNOWN,0,BODY,yes
DOG,'GERM SHEPHERD',MALE,0,UNKNOWN,yes
CAT,UNKNOWN,UNKNOWN,0,UNKNOWN,yes
CAT,UNKNOWN,UNKNOWN,0,BODY,yes
DOG,UNKNOWN,UNKNOWN,0,BODY,yes
DOG,'SHIH TZU',MALE,3,BODY,yes
CAT,UNKNOWN,MALE,0,HEAD,yes
DOG,UNKNOWN,MALE,0,BODY,yes
CAT,UNKNOWN,MALE,0,BODY,yes
DOG,UNKNOWN,UNKNOWN,0,BODY,yes
DOG,UNKNOWN,MALE,2,BODY,yes
CAT,UNKNOWN,MALE,0,BODY,yes
DOG,'SHIH TZU',FEMALE,1,BODY,no
DOG,'COCKER SPAINEL',MALE,1,HEAD,yes
DOG,'PIT BULL',MALE,0,BODY,yes
DOG,UNKNOWN,MALE,1,BODY,yes
DOG,'PIT BULL',UNKNOWN,0,BODY,no
DOG,UNKNOWN,FEMALE,1,HEAD,yes
DOG,CHICHAUHUA,FEMALE,0,HEAD,yes
CAT,UNKNOWN,MALE,0,HEAD,yes
DOG,UNKNOWN,FEMALE,0,BODY,yes
DOG,'PIT BULL',FEMALE,3,HEAD,yes
DOG,BEAGLE,UNKNOWN,0,HEAD,no
DOG,'CHOW CHOW',FEMALE,3,BODY,no
DOG,UNKNOWN,MALE,1,HEAD,yes
DOG,'PIT BULL',MALE,0,HEAD,yes
BAT,UNKNOWN,UNKNOWN,0,BODY,no
DOG,UNKNOWN,UNKNOWN,0,HEAD,yes
DOG,UNKNOWN,UNKNOWN,0,HEAD,yes
DOG,UNKNOWN,MALE,0,HEAD,yes
DOG,OTHER,UNKNOWN,0,BODY,yes
DOG,BOXER,MALE,3,BODY,yes
DOG,'AAUST. TERR.',MALE,1,BODY,yes
DOG,BOXER,FEMALE,1,BODY,no
DOG,BEAGLE,MALE,1,BODY,yes
DOG,'COCKER SPAINEL',MALE,0,BODY,no
DOG,UNKNOWN,MALE,1,HEAD,yes
DOG,'PIT BULL',UNKNOWN,0,BODY,no
DOG,UNKNOWN,FEMALE,1,BODY,yes
DOG,'GOLD RETRIEVER',MALE,1,BODY,yes
DOG,'GERM SHEPHERD',MALE,3,BODY,yes
DOG,'LABRADOR RETRIV',FEMALE,1,BODY,yes
DOG,DACHSHUND,MALE,1,BODY,yes
DOG,BULLMASTIFF,MALE,3,BODY,no
DOG,'PIT BULL',UNKNOWN,0,HEAD,yes
CAT,UNKNOWN,FEMALE,3,BODY,yes
DOG,'BORDER COLLIE',FEMALE,1,BODY,yes
DOG,'PIT BULL',MALE,1,BODY,yes
DOG,POMERANIAN,UNKNOWN,0,BODY,yes
DOG,UNKNOWN,FEMALE,0,BODY,yes
CAT,UNKNOWN,FEMALE,1,BODY,yes
DOG,'YORKSHIRE TERRIER',MALE,1,BODY,yes
DOG,OTHER,MALE,1,HEAD,yes
CAT,UNKNOWN,FEMALE,0,BODY,yes
DOG,'SHIH TZU',MALE,1,BODY,yes
DOG,OTHER,MALE,3,BODY,yes
DOG,OTHER,FEMALE,1,BODY,yes
DOG,GREYHOUND,FEMALE,3,HEAD,no
DOG,CHICHAUHUA,MALE,0,BODY,no
DOG,'SHIH TZU',FEMALE,0,BODY,no
CAT,UNKNOWN,MALE,1,BODY,yes
DOG,ROTTWEILER,UNKNOWN,0,BODY,yes
DOG,OTHER,FEMALE,3,BODY,yes
DOG,'GERM SHEPHERD',MALE,0,BODY,yes
DOG,UNKNOWN,UNKNOWN,0,BODY,yes
RACCOON,UNKNOWN,UNKNOWN,0,BODY,yes
DOG,'PIT BULL',UNKNOWN,0,BODY,no
DOG,UNKNOWN,FEMALE,0,BODY,yes
OTHER,UNKNOWN,UNKNOWN,0,BODY,yes
CAT,UNKNOWN,FEMALE,0,BODY,yes
DOG,UNKNOWN,UNKNOWN,0,BODY,yes
DOG,UNKNOWN,MALE,0,BODY,yes
BAT,UNKNOWN,UNKNOWN,0,UNKNOWN,no
DOG,'PIT BULL',MALE,0,BODY,yes
BAT,UNKNOWN,UNKNOWN,0,BODY,no
CAT,UNKNOWN,MALE,0,BODY,yes
CAT,UNKNOWN,UNKNOWN,0,BODY,yes
DOG,'AMER. BULL DOG',MALE,0,BODY,yes
RABBIT,UNKNOWN,UNKNOWN,0,BODY,yes
DOG,UNKNOWN,MALE,0,UNKNOWN,yes
DOG,'PIT BULL',MALE,0,UNKNOWN,yes
DOG,'GOLD RETRIEVER',MALE,0,BODY,yes
DOG,DALMATIAN,UNKNOWN,0,BODY,yes
DOG,HUSKY,UNKNOWN,0,BODY,yes
DOG,'BORDER COLLIE',UNKNOWN,0,UNKNOWN,no
CAT,UNKNOWN,MALE,0,BODY,yes
BAT,UNKNOWN,UNKNOWN,0,UNKNOWN,no
DOG,UNKNOWN,MALE,3,HEAD,yes
DOG,UNKNOWN,FEMALE,0,BODY,yes
DOG,'PIT BULL',UNKNOWN,0,BODY,no
DOG,BEAGLE,FEMALE,0,HEAD,no
DOG,'CHOW CHOW',UNKNOWN,0,BODY,yes
DOG,'AAUST. TERR.',FEMALE,0,BODY,yes
CAT,UNKNOWN,FEMALE,0,HEAD,yes
BAT,UNKNOWN,UNKNOWN,0,UNKNOWN,no
DOG,'LABRADOR RETRIV',FEMALE,0,UNKNOWN,no
CAT,UNKNOWN,FEMALE,0,UNKNOWN,yes
CAT,UNKNOWN,UNKNOWN,0,UNKNOWN,yes
DOG,'YORKSHIRE TERRIER',FEMALE,0,BODY,yes
DOG,'PIT BULL',MALE,0,HEAD,yes
DOG,UNKNOWN,UNKNOWN,0,HEAD,yes
DOG,'PIT BULL',FEMALE,0,BODY,yes
DOG,'PIT BULL',FEMALE,0,BODY,yes
DOG,DACHSHUND,FEMALE,0,BODY,yes
DOG,'LABRADOR RETRIV',MALE,0,BODY,yes
DOG,BOXER,MALE,0,BODY,yes
DOG,'BULL DOG',MALE,0,UNKNOWN,no
DOG,'SHIH TZU',FEMALE,0,BODY,no
CAT,UNKNOWN,MALE,0,UNKNOWN,yes
BAT,UNKNOWN,UNKNOWN,0,UNKNOWN,no
DOG,'LABRADOR RETRIV',FEMALE,0,HEAD,no
DOG,MASTIF,MALE,0,BODY,no
DOG,UNKNOWN,MALE,0,HEAD,yes
DOG,'LABRADOR RETRIV',FEMALE,0,BODY,yes
DOG,'PIT BULL',FEMALE,0,UNKNOWN,yes
DOG,'CHOW CHOW',MALE,0,HEAD,yes
DOG,'GREAT PYRENEESE',FEMALE,0,UNKNOWN,no
DOG,MASTIF,MALE,3,BODY,no
CAT,UNKNOWN,MALE,0,BODY,yes
RACCOON,UNKNOWN,UNKNOWN,0,BODY,yes
DOG,'PIT BULL',UNKNOWN,0,HEAD,yes
DOG,'GREAT DANE',MALE,0,BODY,no
DOG,'BORDER COLLIE',MALE,0,BODY,no
DOG,'YORKSHIRE TERRIER',MALE,0,BODY,yes
DOG,ROTTWEILER,MALE,3,BODY,no
DOG,POODLE,MALE,1,BODY,no
DOG,'SIBERAN HUSKY',UNKNOWN,0,BODY,yes
DOG,'PIT BULL',FEMALE,0,BODY,yes
DOG,ROTTWEILER,UNKNOWN,0,BODY,yes
DOG,WEIMARANER,MALE,3,BODY,no
DOG,'CHOW CHOW',MALE,1,BODY,yes
DOG,OTHER,MALE,1,BODY,yes
DOG,CORGI,FEMALE,0,BODY,no
DOG,'BOSTON TERRIER',MALE,1,BODY,yes
DOG,HUSKY,MALE,1,BODY,yes
DOG,'LABRADOR RETRIV',MALE,1,HEAD,yes
DOG,SCHNAUZER,FEMALE,1,BODY,no
DOG,'SHIH TZU',MALE,0,BODY,no
DOG,'PIT BULL',MALE,0,BODY,yes
DOG,'COCKER SPAINEL',UNKNOWN,0,BODY,yes
DOG,'PIT BULL',FEMALE,1,BODY,yes
DOG,'GERM SHEPHERD',UNKNOWN,0,BODY,no
DOG,'LABRADOR RETRIV',FEMALE,0,BODY,yes
DOG,UNKNOWN,UNKNOWN,0,BODY,yes
DOG,UNKNOWN,FEMALE,0,HEAD,yes
DOG,'BASSET HOUND',FEMALE,1,BODY,yes
DOG,UNKNOWN,UNKNOWN,1,BODY,yes
DOG,'BULL DOG',MALE,1,BODY,no
DOG,'MIN PIN',MALE,1,BODY,yes
DOG,UNKNOWN,FEMALE,3,BODY,yes
DOG,'PIT BULL',MALE,0,BODY,yes
CAT,UNKNOWN,MALE,3,BODY,yes
DOG,POODLE,FEMALE,1,BODY,yes
CAT,UNKNOWN,UNKNOWN,1,BODY,yes
DOG,'GERM SHEPHERD',MALE,1,BODY,yes
DOG,'AAUST. TERR.',UNKNOWN,0,BODY,yes
DOG,'LABRADOR RETRIV',UNKNOWN,0,BODY,no
DOG,'CHOW CHOW',UNKNOWN,0,HEAD,yes
DOG,'GERM SHEPHERD',FEMALE,1,BODY,yes
DOG,DACHSHUND,MALE,3,BODY,yes
DOG,ROTTWEILER,MALE,1,BODY,no
DOG,UNKNOWN,MALE,3,BODY,yes
DOG,'SHIH TZU',FEMALE,1,HEAD,no
DOG,'MIN PIN',UNKNOWN,0,HEAD,yes
DOG,'WELSH CORGI',MALE,0,BODY,no
DOG,'LABRADOR RETRIV',MALE,1,BODY,yes
DOG,UNKNOWN,UNKNOWN,0,UNKNOWN,yes
DOG,'BORDER COLLIE',MALE,0,UNKNOWN,yes
DOG,POMERANIAN,MALE,1,BODY,no
DOG,'LABRADOR RETRIV',MALE,3,BODY,yes
DOG,'GERM SHEPHERD',MALE,0,BODY,yes
DOG,'SHIH TZU',MALE,1,HEAD,no
DOG,'BULL DOG',FEMALE,1,BODY,yes
DOG,UNKNOWN,FEMALE,3,HEAD,yes
DOG,BOXER,MALE,0,BODY,yes
DOG,BOXER,UNKNOWN,0,BODY,yes
DOG,MASTIF,MALE,1,BODY,no
DOG,UNKNOWN,MALE,1,UNKNOWN,yes
DOG,'COCKER SPAINEL',FEMALE,1,BODY,yes
DOG,MASTIF,FEMALE,3,BODY,yes
DOG,CHICHAUHUA,MALE,1,HEAD,yes
DOG,SCHNAUZER,FEMALE,3,HEAD,no
DOG,'GERM SHEPHERD',UNKNOWN,0,BODY,no
DOG,UNKNOWN,MALE,1,BODY,yes
DOG,WEIMARANER,MALE,1,BODY,yes
DOG,'LABRADOR RETRIV',MALE,0,BODY,yes
DOG,ROTTWEILER,FEMALE,0,BODY,no
DOG,DACHSHUND,MALE,3,HEAD,yes
DOG,'SIBERAN HUSKY',MALE,3,BODY,no
DOG,'AM BULLDOG',MALE,1,BODY,no
DOG,BOXER,UNKNOWN,0,HEAD,yes
DOG,OTHER,MALE,0,HEAD,no
DOG,UNKNOWN,MALE,0,BODY,yes
DOG,CHICHAUHUA,FEMALE,0,BODY,no
DOG,'LABRADOR RETRIV',MALE,0,HEAD,yes
DOG,CHICHAUHUA,MALE,1,BODY,no
DOG,DACHSHUND,MALE,1,HEAD,yes
DOG,BOXER,MALE,0,BODY,yes
DOG,BOXER,MALE,1,HEAD,yes
DOG,'AMER. BULL DOG',FEMALE,3,BODY,yes
DOG,BOXER,FEMALE,3,HEAD,yes
DOG,BOXER,FEMALE,0,BODY,no
DOG,SAMOYED,MALE,1,BODY,yes
DOG,UNKNOWN,MALE,0,HEAD,yes
DOG,'BORDER COLLIE',FEMALE,3,HEAD,no
DOG,CHICHAUHUA,UNKNOWN,0,BODY,no
DOG,BOXER,MALE,0,BODY,yes
DOG,MALTASE,MALE,3,BODY,no
DOG,AKITA,MALE,0,BODY,no
DOG,MALTASE,FEMALE,1,BODY,yes
DOG,'PIT BULL',FEMALE,1,BODY,yes
DOG,SHELTIE,MALE,1,BODY,yes
DOG,'SHIH TZU',FEMALE,0,BODY,no
DOG,'BOSTON TERRIER',MALE,1,HEAD,yes
DOG,'LHASA APSO',UNKNOWN,0,HEAD,yes
DOG,HUSKY,FEMALE,1,BODY,yes
DOG,CHICHAUHUA,UNKNOWN,0,BODY,no
DOG,UNKNOWN,MALE,3,HEAD,yes
DOG,'AM BULLDOG',FEMALE,3,BODY,yes
DOG,'BULL DOG',MALE,3,BODY,no
DOG,OTHER,MALE,0,BODY,yes
DOG,'SAINT BERNARD',MALE,0,BODY,no
DOG,'BOSTON TERRIER',FEMALE,1,HEAD,no
DOG,'SIBERAN HUSKY',MALE,0,HEAD,yes
DOG,'PIT BULL',MALE,1,HEAD,yes
DOG,BOXER,MALE,1,BODY,yes
DOG,BEAGLE,FEMALE,1,HEAD,yes
DOG,'LABRADOR RETRIV',MALE,0,HEAD,yes
DOG,'AIREDALE TER.',UNKNOWN,0,BODY,yes
DOG,'AM. ESKIMO',MALE,0,BODY,no
DOG,'GERM SHEPHERD',UNKNOWN,0,BODY,no
DOG,UNKNOWN,FEMALE,3,UNKNOWN,yes
DOG,SHELTIE,MALE,1,HEAD,yes
DOG,'PIT BULL',FEMALE,0,HEAD,yes
DOG,'AM BULLDOG',MALE,3,BODY,yes
DOG,'BICHON FRISE',MALE,1,BODY,yes
CAT,UNKNOWN,MALE,1,BODY,yes
DOG,PUG,MALE,1,BODY,no
DOG,GREYHOUND,MALE,3,BODY,no
DOG,CHICHAUHUA,MALE,0,HEAD,yes
DOG,UNKNOWN,MALE,1,BODY,yes
DOG,'CHOW CHOW',MALE,0,BODY,no
DOG,DOBERMAN,MALE,1,BODY,yes
DOG,'AIREDALE TER.',MALE,1,BODY,yes
DOG,'BOSTON TERRIER',FEMALE,1,BODY,yes
DOG,UNKNOWN,MALE,1,HEAD,yes
DOG,'GERM SHEPHERD',FEMALE,1,HEAD,yes
DOG,SCHNAUZER,MALE,3,BODY,no
DOG,DOTSON,MALE,1,BODY,no
DOG,'CHOW CHOW',FEMALE,0,HEAD,no
CAT,UNKNOWN,UNKNOWN,0,HEAD,yes
DOG,POODLE,UNKNOWN,0,BODY,yes
DOG,'AAUST. TERR.',MALE,0,HEAD,yes
DOG,'NEW FOUNDLAND',UNKNOWN,0,BODY,yes
DOG,BEAGLE,MALE,0,BODY,yes
DOG,DOBERMAN,UNKNOWN,1,BODY,no
DOG,UNKNOWN,UNKNOWN,3,BODY,yes
DOG,UNKNOWN,FEMALE,1,BODY,yes
DOG,'COCKER SPAINEL',FEMALE,0,BODY,no
DOG,'AM BULLDOG',MALE,1,HEAD,yes
DOG,BULLMASTIFF,MALE,0,BODY,no
DOG,'LHASA APSO',FEMALE,1,BODY,yes
DOG,BOXER,MALE,1,HEAD,yes
DOG,'BERNESEN MT.',FEMALE,1,BODY,yes
DOG,UNKNOWN,MALE,3,BODY,yes
DOG,HAVANESE,FEMALE,1,BODY,yes
DOG,'GREAT DANE',MALE,3,BODY,no
DOG,DOBERMAN,FEMALE,3,BODY,yes
DOG,BOXER,MALE,1,BODY,yes
DOG,AKITA,UNKNOWN,0,HEAD,yes
DOG,'ENGLISH SETTER',FEMALE,1,BODY,yes
DOG,BEAGLE,MALE,3,BODY,yes
DOG,DOBERMAN,MALE,3,BODY,yes
DOG,UNKNOWN,FEMALE,0,BODY,yes
DOG,UNKNOWN,FEMALE,0,HEAD,yes
DOG,'PIT BULL',FEMALE,1,HEAD,yes
DOG,CHICHAUHUA,UNKNOWN,0,BODY,no
DOG,'GERM SHEPHERD',MALE,1,BODY,yes
DOG,'GERM SHEPHERD',MALE,0,HEAD,yes
DOG,BULLMASTIFF,UNKNOWN,0,HEAD,yes
DOG,AKITA,FEMALE,1,BODY,yes
DOG,SHAR-PEI,MALE,1,BODY,yes
DOG,DACHSHUND,FEMALE,1,HEAD,yes
CAT,UNKNOWN,MALE,3,BODY,yes
DOG,COCKAPOO,FEMALE,1,HEAD,no
DOG,'GERM SHEPHERD',FEMALE,0,BODY,yes
DOG,'OLD ENG SHP DOG',MALE,1,BODY,yes
DOG,'PIT BULL',UNKNOWN,0,HEAD,yes
DOG,'MIN PIN',UNKNOWN,0,BODY,yes
DOG,BOXER,FEMALE,3,BODY,yes
DOG,'GREAT PYRENEESE',UNKNOWN,0,BODY,yes
DOG,'MIN PIN',FEMALE,3,BODY,yes
DOG,AKITA,FEMALE,0,BODY,no
DOG,ROTTWEILER,UNKNOWN,0,HEAD,yes
DOG,DOBERMAN,UNKNOWN,0,BODY,yes
DOG,MALTASE,MALE,1,BODY,no
DOG,UNKNOWN,UNKNOWN,0,UNKNOWN,yes
DOG,BOXER,UNKNOWN,0,BODY,yes
DOG,'AAUST. TERR.',FEMALE,1,BODY,yes
DOG,CHICHAUHUA,FEMALE,1,BODY,no
DOG,'MIN PIN',FEMALE,0,BODY,no
DOG,BEAGLE,FEMALE,1,BODY,yes
DOG,'AM BULLDOG',MALE,0,BODY,no
HORSE,UNKNOWN,FEMALE,0,BODY,yes
DOG,AKITA,MALE,1,BODY,yes
DOG,DACHSHUND,FEMALE,1,BODY,yes
DOG,ROTTWEILER,MALE,3,HEAD,yes
DOG,'COCKER SPAINEL',MALE,1,BODY,no
DOG,'SHIH TZU',UNKNOWN,0,BODY,yes
CAT,UNKNOWN,FEMALE,1,HEAD,yes
DOG,'YORKSHIRE TERRIER',FEMALE,1,BODY,yes
DOG,WESTIE,FEMALE,1,HEAD,no
DOG,'GOLD RETRIEVER',MALE,0,BODY,yes
DOG,UNKNOWN,UNKNOWN,0,HEAD,yes
CAT,UNKNOWN,UNKNOWN,0,HEAD,yes
DOG,'SHIH TZU',MALE,0,HEAD,no
DOG,POMERANIAN,MALE,0,BODY,no
DOG,SHELTIE,FEMALE,1,BODY,yes
DOG,'AM BULLDOG',UNKNOWN,0,BODY,yes
DOG,UNKNOWN,UNKNOWN,0,UNKNOWN,yes
DOG,'LABRADOR RETRIV',MALE,0,HEAD,yes
DOG,WEIMARANER,MALE,0,BODY,no
DOG,'GOLD RETRIEVER',FEMALE,0,BODY,no
DOG,OTHER,FEMALE,0,UNKNOWN,yes
DOG,DOTSON,MALE,0,HEAD,no
DOG,'LABRADOR RETRIV',UNKNOWN,0,UNKNOWN,no
DOG,POODLE,UNKNOWN,0,UNKNOWN,no
DOG,'PIT BULL',MALE,1,BODY,yes
DOG,BOUVIER,UNKNOWN,0,HEAD,yes
DOG,DACHSHUND,UNKNOWN,0,BODY,yes
CAT,UNKNOWN,FEMALE,1,HEAD,yes
CAT,UNKNOWN,FEMALE,0,UNKNOWN,yes
DOG,'AM BULLDOG',UNKNOWN,0,HEAD,yes
DOG,'COCKER SPAINEL',FEMALE,0,HEAD,no
DOG,'GOLD RETRIEVER',MALE,1,BODY,yes
DOG,'BERNESEN MT.',MALE,3,UNKNOWN,no
DOG,'BERNESEN MT.',MALE,1,BODY,yes
DOG,'BERNESEN MT.',UNKNOWN,3,BODY,no
CAT,UNKNOWN,MALE,1,UNKNOWN,yes
DOG,BOXER,FEMALE,0,BODY,no
DOG,BOXER,UNKNOWN,0,UNKNOWN,no
DOG,UNKNOWN,MALE,0,BODY,yes
DOG,'PIT BULL',FEMALE,0,BODY,yes
DOG,'YORKSHIRE TERRIER',MALE,0,BODY,yes
DOG,'PIT BULL',MALE,0,BODY,yes
DOG,BOXER,MALE,0,HEAD,yes
DOG,CHICHAUHUA,MALE,0,BODY,no
DOG,SCHNAUZER,MALE,3,HEAD,no
DOG,MALTASE,MALE,1,HEAD,yes
CAT,UNKNOWN,UNKNOWN,1,UNKNOWN,yes
DOG,'PIT BULL',FEMALE,3,BODY,yes
DOG,'LABRADOR RETRIV',MALE,0,BODY,yes
CAT,UNKNOWN,FEMALE,1,BODY,yes
DOG,UNKNOWN,FEMALE,0,UNKNOWN,yes
DOG,UNKNOWN,FEMALE,1,UNKNOWN,yes
DOG,UNKNOWN,UNKNOWN,1,HEAD,yes
DOG,'BASSET HOUND',MALE,0,HEAD,no
DOG,'SHIH TZU',MALE,1,BODY,yes
RABBIT,UNKNOWN,UNKNOWN,0,UNKNOWN,yes
DOG,AKITA,MALE,1,BODY,yes
DOG,'AAUST. TERR.',FEMALE,3,HEAD,no
DOG,'RAT TERRIER',MALE,0,HEAD,no
DOG,'GERM SHEPHERD',MALE,1,HEAD,yes
DOG,AKITA,MALE,0,UNKNOWN,no
DOG,'GERM SHEPHERD',MALE,3,BODY,yes
DOG,'BORDER COLLIE',MALE,1,BODY,yes
DOG,UNKNOWN,UNKNOWN,3,UNKNOWN,yes
DOG,'GREAT DANE',MALE,3,BODY,no
DOG,WESTIE,FEMALE,1,HEAD,no
DOG,UNKNOWN,MALE,3,UNKNOWN,yes
DOG,BOXER,MALE,1,BODY,yes
DOG,WEIMARANER,FEMALE,1,UNKNOWN,yes
DOG,BOXER,FEMALE,1,BODY,no
DOG,UNKNOWN,MALE,1,UNKNOWN,yes
DOG,BOXER,UNKNOWN,3,BODY,no
DOG,SCHNAUZER,MALE,1,HEAD,no
DOG,'BASSET HOUND',MALE,0,BODY,no
DOG,'LABRADOR RETRIV',FEMALE,1,HEAD,no
DOG,'GREAT DANE',UNKNOWN,0,HEAD,yes
DOG,'SHEEP DOG',MALE,3,BODY,no
CAT,UNKNOWN,MALE,3,UNKNOWN,yes
CAT,UNKNOWN,MALE,0,UNKNOWN,yes
DOG,'PIT BULL',MALE,1,HEAD,yes
DOG,'GREAT DANE',UNKNOWN,0,UNKNOWN,yes
DOG,'BOSTON TERRIER',FEMALE,1,BODY,yes
DOG,CHICHAUHUA,MALE,1,UNKNOWN,yes
DOG,'PIT BULL',MALE,0,HEAD,yes
DOG,CHICHAUHUA,MALE,0,HEAD,yes
DOG,'LABRADOR RETRIV',MALE,1,BODY,yes
DOG,'BORDER COLLIE',FEMALE,0,HEAD,no
DOG,BULLMASTIFF,MALE,1,HEAD,no
DOG,POMERANIAN,MALE,1,BODY,no
DOG,UNKNOWN,MALE,0,UNKNOWN,yes
DOG,'LABRADOR RETRIV',FEMALE,0,BODY,yes
DOG,UNKNOWN,UNKNOWN,1,UNKNOWN,yes
DOG,CHICHAUHUA,FEMALE,0,BODY,no
DOG,'LABRADOR RETRIV',FEMALE,3,BODY,yes
DOG,DACHSHUND,MALE,0,BODY,yes
DOG,'CHOW CHOW',FEMALE,0,BODY,no
DOG,HEELER,MALE,0,HEAD,yes
DOG,'MIN PIN',MALE,3,BODY,no
DOG,WESTIE,MALE,3,UNKNOWN,no
DOG,PEKINGESE,UNKNOWN,0,BODY,yes
DOG,UNKNOWN,FEMALE,3,UNKNOWN,yes
DOG,'GERM SHEPHERD',MALE,0,BODY,yes
DOG,'PIT BULL',MALE,1,BODY,yes
DOG,'WELSH CORGI',FEMALE,0,BODY,no
DOG,'SHIH TZU',MALE,1,UNKNOWN,yes
DOG,'BOSTON TERRIER',UNKNOWN,0,BODY,yes
CAT,UNKNOWN,MALE,0,UNKNOWN,yes
DOG,'PIT BULL',MALE,1,UNKNOWN,yes
DOG,'GERM SHEPHERD',MALE,0,HEAD,yes
DOG,SHELTIE,UNKNOWN,0,UNKNOWN,yes
DOG,AKITA,UNKNOWN,0,BODY,yes
OTHER,UNKNOWN,UNKNOWN,0,BODY,yes
DOG,UNKNOWN,MALE,0,UNKNOWN,yes
DOG,'SHIH TZU',UNKNOWN,0,BODY,yes
DOG,'BORDER COLLIE',MALE,0,BODY,no
DOG,BEAGLE,UNKNOWN,0,BODY,yes
DOG,AKITA,MALE,0,BODY,no
DOG,BEAGLE,MALE,0,BODY,yes
DOG,BEAGLE,MALE,0,UNKNOWN,no
DOG,'GOLD RETRIEVER',UNKNOWN,0,BODY,yes
DOG,'YORKSHIRE TERRIER',MALE,0,BODY,yes
DOG,DALMATIAN,FEMALE,0,BODY,no
DOG,'FOX TERRIER MIX',MALE,1,BODY,yes
DOG,BEAGLE,FEMALE,0,UNKNOWN,yes
DOG,BEAGLE,FEMALE,0,BODY,yes
DOG,DOBERMAN,FEMALE,0,HEAD,no
DOG,'AAUST. TERR.',UNKNOWN,0,UNKNOWN,yes
DOG,WEIMARANER,FEMALE,0,BODY,no
DOG,'ENGLISH BULLDOG',MALE,3,HEAD,no
DOG,'YORKSHIRE TERRIER',FEMALE,0,BODY,yes
DOG,'GREAT DANE',MALE,0,UNKNOWN,no
DOG,POMERANIAN,MALE,0,BODY,no
DOG,DACHSHUND,FEMALE,1,BODY,yes
DOG,BOXER,MALE,0,HEAD,yes
DOG,OTHER,MALE,0,BODY,yes
DOG,SHAR-PEI,MALE,1,BODY,yes
DOG,BOXER,FEMALE,3,BODY,yes
DOG,'RAT TERRIER',MALE,1,BODY,yes
DOG,'BOSTON TERRIER',FEMALE,0,HEAD,no
DOG,'BORDER COLLIE',MALE,0,UNKNOWN,yes
CAT,UNKNOWN,FEMALE,0,BODY,yes
DOG,'BORDER COLLIE M',MALE,3,BODY,no
DOG,AKITA,MALE,0,HEAD,no
DOG,'SHIH TZU',MALE,1,HEAD,no
DOG,'PIT BULL',MALE,3,BODY,yes
DOG,CHICHAUHUA,FEMALE,0,UNKNOWN,yes
DOG,UNKNOWN,FEMALE,0,UNKNOWN,yes
DOG,'AAUST. TERR.',MALE,1,HEAD,yes
DOG,'YORKSHIRE TERRIER',FEMALE,1,BODY,yes
DOG,'BORDER COLLIE',MALE,3,BODY,no
DOG,CHICHAUHUA,FEMALE,0,HEAD,yes
DOG,'BORDER COLLIE M',UNKNOWN,3,BODY,no
DOG,'LABRADOR RETRIV',UNKNOWN,0,BODY,no
DOG,BEAGLE,MALE,1,BODY,yes
DOG,'SHIH TZU',FEMALE,0,HEAD,no
DOG,BEAGLE,MALE,0,BODY,yes
DOG,'SHIH TZU',MALE,1,UNKNOWN,yes
DOG,'GERM SHEPHERD',FEMALE,1,BODY,yes
DOG,BEAGLE,MALE,3,BODY,yes
DOG,UNKNOWN,FEMALE,0,HEAD,yes
DOG,MASTIF,MALE,3,UNKNOWN,no
DOG,'BORDER COLLIE',UNKNOWN,0,UNKNOWN,no
DOG,BOXER,FEMALE,1,UNKNOWN,yes
DOG,'GREAT DANE',UNKNOWN,3,HEAD,no
DOG,'GERM SHEPHERD',MALE,1,BODY,yes
DOG,BASANJI,FEMALE,0,BODY,no
DOG,CHICHAUHUA,MALE,3,BODY,no
DOG,'GERM SHEPHERD',UNKNOWN,3,UNKNOWN,yes
DOG,ROTTWEILER,MALE,0,UNKNOWN,no
DOG,BOXER,MALE,3,BODY,yes
DOG,BOXER,MALE,1,UNKNOWN,yes
DOG,POODLE,FEMALE,0,BODY,no
DOG,'GOLD RETRIEVER',MALE,0,HEAD,yes
DOG,ROTTWEILER,MALE,0,BODY,no
DOG,PYRENES,FEMALE,1,UNKNOWN,yes
DOG,UNKNOWN,MALE,3,HEAD,yes
DOG,'GERM SHEPHERD',FEMALE,0,HEAD,yes
DOG,'GREAT DANE',MALE,1,UNKNOWN,no
DOG,'LABRADOR RETRIV',MALE,3,BODY,yes
DOG,DACHSHUND,MALE,0,UNKNOWN,yes
DOG,SHELTIE,UNKNOWN,0,BODY,yes
DOG,DOBERMAN,MALE,1,UNKNOWN,no
DOG,'BLOOD HOUND',MALE,3,BODY,no
CAT,UNKNOWN,FEMALE,1,UNKNOWN,yes
DOG,'PIT BULL',UNKNOWN,0,UNKNOWN,yes
DOG,COLLIE,MALE,0,UNKNOWN,no
DOG,CHICHAUHUA,UNKNOWN,0,HEAD,yes
DOG,'SAINT BERNARD',UNKNOWN,3,UNKNOWN,no
DOG,PEKINGESE,UNKNOWN,0,UNKNOWN,yes
DOG,'AAUST. TERR.',FEMALE,0,BODY,yes
DOG,'PIT BULL',FEMALE,1,UNKNOWN,yes
DOG,'RAT TERRIER',FEMALE,1,UNKNOWN,yes
CAT,UNKNOWN,FEMALE,0,UNKNOWN,yes
DOG,DOTSON,MALE,3,BODY,no
DOG,BULLMASTIFF,UNKNOWN,0,HEAD,yes
DOG,UNKNOWN,UNKNOWN,1,BODY,yes
DOG,'SHIH TZU',UNKNOWN,1,UNKNOWN,no
DOG,'BORDER COLLIE M',FEMALE,1,BODY,yes
DOG,'COCKER SPAINEL',MALE,1,UNKNOWN,no
DOG,HUSKY,MALE,3,HEAD,no
DOG,ROTTWEILER,MALE,3,UNKNOWN,yes
CAT,UNKNOWN,UNKNOWN,3,UNKNOWN,no
DOG,'ENGLISH BULLDOG',MALE,1,UNKNOWN,no
DOG,HUSKY,FEMALE,1,HEAD,no
DOG,'CHOW CHOW',FEMALE,1,HEAD,no
DOG,CHICHAUHUA,UNKNOWN,1,HEAD,no
DOG,UNKNOWN,FEMALE,1,HEAD,yes
DOG,OTHER,MALE,1,HEAD,yes
SKUNK,UNKNOWN,MALE,0,BODY,yes
DOG,'PIT BULL',FEMALE,1,HEAD,yes
DOG,'RAT TERRIER',MALE,1,HEAD,no
DOG,AKITA,FEMALE,1,HEAD,no
DOG,'ALASK. MALAMUTE',UNKNOWN,0,UNKNOWN,yes
DOG,'BRITNEY SPANIEL',MALE,1,HEAD,yes
DOG,'BORDER COLLIE M',MALE,1,BODY,yes
CAT,UNKNOWN,FEMALE,3,BODY,yes
DOG,'GERM SHEPHERD',FEMALE,0,UNKNOWN,yes
CAT,UNKNOWN,FEMALE,3,UNKNOWN,yes
DOG,CHICHAUHUA,MALE,1,HEAD,yes
DOG,'RAT TERRIER',FEMALE,1,HEAD,no
DOG,'BRITNEY SPANIEL',MALE,3,BODY,no
DOG,'BICHON FRESE',MALE,0,BODY,no
DOG,'GOLD RETRIEVER',FEMALE,1,BODY,no
CAT,UNKNOWN,UNKNOWN,0,UNKNOWN,yes
DOG,CHICHAUHUA,FEMALE,1,BODY,no
DOG,'GERM SHEPHERD',FEMALE,1,UNKNOWN,yes
DOG,'SHEEP DOG',MALE,0,BODY,no
DOG,'GREAT DANE',UNKNOWN,0,BODY,yes
DOG,'PIT BULL',UNKNOWN,0,BODY,no
DOG,'BULL DOG',UNKNOWN,1,BODY,no
DOG,UNKNOWN,FEMALE,3,BODY,yes
DOG,'LABRADOR RETRIV',FEMALE,0,UNKNOWN,no
DOG,'AAUST. TERR.',MALE,1,BODY,yes
DOG,'BULL DOG',MALE,3,BODY,no
DOG,POMERANIAN,MALE,0,UNKNOWN,no
DOG,'BORDER COLLIE M',MALE,1,HEAD,no
DOG,MASTIF,MALE,1,BODY,no
DOG,POODLE,MALE,0,BODY,no
DOG,'RAT TERRIER',MALE,1,UNKNOWN,no
DOG,'AAUST. TERR.',FEMALE,0,BODY,yes
DOG,'PIT BULL',UNKNOWN,1,UNKNOWN,yes
DOG,'GOLD RETRIEVER',MALE,1,UNKNOWN,yes
DOG,BOXER,MALE,1,HEAD,yes
DOG,'LABRADOR RETRIV',FEMALE,1,UNKNOWN,yes
DOG,ROTTWEILER,MALE,1,BODY,no
DOG,DACHSHUND,MALE,1,BODY,yes
DOG,'LABRADOR RETRIV',FEMALE,3,UNKNOWN,yes
DOG,'PIT BULL',UNKNOWN,3,BODY,no
CAT,UNKNOWN,UNKNOWN,1,BODY,yes
DOG,POODLE,MALE,1,BODY,no
DOG,'GERM SHEPHERD',MALE,1,UNKNOWN,yes
DOG,UNKNOWN,UNKNOWN,3,BODY,yes
DOG,UNKNOWN,MALE,3,BODY,yes
DOG,'PIT BULL',FEMALE,0,UNKNOWN,yes
DOG,DOTSON,UNKNOWN,0,BODY,yes
DOG,'PIT BULL',UNKNOWN,1,BODY,no
DOG,'BICHON FRISE',MALE,1,BODY,yes
DOG,ROTTWEILER,UNKNOWN,0,UNKNOWN,no
DOG,'GERM SHEPHERD',FEMALE,0,BODY,yes
DOG,'LABRADOR RETRIV',UNKNOWN,1,HEAD,no
DOG,'AAUST. TERR.',MALE,0,BODY,yes
DOG,MALTASE,MALE,0,BODY,no
DOG,OTHER,MALE,1,BODY,yes
DOG,'ENGLISH BULLDOG',FEMALE,1,BODY,yes
DOG,'PIT BULL',UNKNOWN,3,HEAD,yes
DOG,DOBERMAN,MALE,3,HEAD,yes
DOG,'BORDER COLLIE',UNKNOWN,0,BODY,yes
DOG,'BORDER COLLIE M',UNKNOWN,0,BODY,yes
DOG,DACHSHUND,UNKNOWN,0,HEAD,no
DOG,'BLOOD HOUND',MALE,0,UNKNOWN,no
DOG,'BASSET HOUND',MALE,0,UNKNOWN,no
DOG,UNKNOWN,UNKNOWN,3,HEAD,yes
DOG,'BULL DOG',UNKNOWN,1,UNKNOWN,no
DOG,MASTIF,UNKNOWN,1,BODY,no
DOG,'LABRADOR RETRIV',MALE,1,UNKNOWN,yes
DOG,BULLMASTIFF,MALE,1,UNKNOWN,no
DOG,ROTTWEILER,FEMALE,0,BODY,no
DOG,'CHOW CHOW',FEMALE,3,BODY,no
DOG,WEIMARANER,MALE,0,BODY,no
DOG,'AAUST. TERR.',MALE,1,UNKNOWN,yes
DOG,'BORDER COLLIE',MALE,1,UNKNOWN,no
DOG,AKITA,FEMALE,1,BODY,yes
DOG,'BICHON FRESE',FEMALE,1,UNKNOWN,yes
DOG,MALTASE,UNKNOWN,1,BODY,no
DOG,'GERM SHEPHERD',UNKNOWN,3,BODY,no
DOG,'YORKSHIRE TERRIER',MALE,1,UNKNOWN,yes
DOG,'GREAT DANE',UNKNOWN,1,BODY,no
DOG,WEIMARANER,FEMALE,1,BODY,yes
DOG,POODLE,FEMALE,1,BODY,yes
DOG,POODLE,MALE,1,UNKNOWN,no
DOG,POMERANIAN,MALE,0,BODY,no
DOG,'GERM SHEPHERD',UNKNOWN,0,UNKNOWN,yes
DOG,'WELSH CORGI',MALE,1,BODY,yes
DOG,MASTIF,MALE,1,HEAD,no
DOG,'GREAT PYRENEESE',FEMALE,0,BODY,no
DOG,PUG,FEMALE,0,BODY,no
DOG,BEAGLE,MALE,0,HEAD,no
DOG,POODLE,MALE,0,BODY,no
DOG,'LABRADOR RETRIV',MALE,0,UNKNOWN,yes
DOG,'MIN PIN',UNKNOWN,1,BODY,no
DOG,'FOX TERRIER',FEMALE,1,HEAD,no
DOG,SCHNAUZER,MALE,3,BODY,no
DOG,CHICHAUHUA,MALE,0,BODY,no
DOG,'AMER. BULL DOG',FEMALE,1,BODY,yes
DOG,'AMER. BULL DOG',MALE,1,HEAD,no
DOG,ROTTWEILER,FEMALE,1,BODY,no
DOG,'MIN PIN',MALE,0,BODY,no
DOG,'BULL DOG',MALE,3,UNKNOWN,no
DOG,'LABRADOR RETRIV',UNKNOWN,0,HEAD,yes
DOG,CHICHAUHUA,FEMALE,1,UNKNOWN,yes
DOG,GREYHOUND,FEMALE,0,BODY,no
DOG,HUSKY,UNKNOWN,1,HEAD,no
DOG,ROTTWEILER,MALE,3,BODY,no
DOG,'SIBERAN HUSKY',FEMALE,0,HEAD,no
DOG,CHICHAUHUA,UNKNOWN,3,BODY,no
DOG,BEAGLE,UNKNOWN,0,UNKNOWN,no
DOG,'AAUST. TERR.',MALE,3,BODY,yes
DOG,'SHIH TZU',UNKNOWN,3,UNKNOWN,no
DOG,COLLIE,FEMALE,1,BODY,yes
DOG,'WELSH CORGI',FEMALE,0,BODY,no
DOG,'PIT BULL',MALE,0,UNKNOWN,yes
DOG,'ENGLISH BULLDOG',MALE,1,BODY,no
DOG,'LHASA APSO',FEMALE,1,BODY,yes
DOG,DACHSHUND,MALE,3,HEAD,yes
DOG,'YORKSHIRE TERRIER',FEMALE,3,BODY,yes
DOG,'LABRADOR RETRIV',UNKNOWN,0,BODY,no
DOG,BEAGLE,UNKNOWN,0,HEAD,no
DOG,BEAGLE,UNKNOWN,1,BODY,no
DOG,DOBERMAN,FEMALE,1,BODY,yes
DOG,COLLIE,UNKNOWN,0,BODY,yes
DOG,'LABRADOR RETRIV',MALE,0,BODY,yes
DOG,'SHIH TZU',FEMALE,0,BODY,no
DOG,'AM BULLDOG',MALE,0,BODY,no
DOG,DACHSHUND,MALE,1,HEAD,yes
DOG,'RAT TERRIER',MALE,0,BODY,no
DOG,'BORDER COLLIE',MALE,0,HEAD,yes
DOG,HUSKY,MALE,3,UNKNOWN,no
DOG,'AAUST. TERR.',MALE,0,BODY,yes
DOG,'SIBERAN HUSKY',MALE,0,BODY,no
DOG,'YORKSHIRE TERRIER',MALE,3,UNKNOWN,yes
DOG,CORGI,UNKNOWN,0,HEAD,yes
DOG,HAVANESE,UNKNOWN,1,BODY,no
DOG,'GERM SHEPHERD',FEMALE,1,UNKNOWN,yes
DOG,'ENGLISH BULLDOG',MALE,0,UNKNOWN,no
DOG,PEKINGESE,FEMALE,0,UNKNOWN,no
DOG,'BLUE HEELER',MALE,3,BODY,no
DOG,'SHIH TZU',FEMALE,1,BODY,no
DOG,CHICHAUHUA,UNKNOWN,0,BODY,no
DOG,'BOSTON TERRIER',MALE,0,UNKNOWN,yes
DOG,PEKINGESE,FEMALE,1,BODY,yes
DOG,AKITA,UNKNOWN,0,UNKNOWN,yes
DOG,CHICHAUHUA,UNKNOWN,1,BODY,no
DOG,'LABRADOR RETRIV',UNKNOWN,3,HEAD,no
DOG,BOXER,FEMALE,1,HEAD,yes
DOG,CATAHOULA,FEMALE,3,BODY,yes
DOG,BOXER,MALE,0,BODY,yes
DOG,MALTASE,UNKNOWN,0,BODY,yes
DOG,ROTTWEILER,UNKNOWN,3,BODY,no
DOG,'SHIH TZU',MALE,3,HEAD,no
DOG,'PIT BULL',FEMALE,0,HEAD,yes
DOG,BEAGLE,FEMALE,1,BODY,yes
DOG,BEAGLE,MALE,1,HEAD,yes
DOG,DOBERMAN,UNKNOWN,3,BODY,no
DOG,UNKNOWN,MALE,0,HEAD,yes
DOG,UNKNOWN,FEMALE,3,HEAD,yes
DOG,POMERANIAN,FEMALE,0,BODY,no
DOG,POMERANIAN,FEMALE,1,UNKNOWN,yes
DOG,SCHNAUZER,MALE,1,BODY,no
DOG,'COCKER SPAINEL',UNKNOWN,0,UNKNOWN,yes
DOG,'BOSTON TERRIER',UNKNOWN,0,UNKNOWN,yes
CAT,UNKNOWN,MALE,1,HEAD,yes
DOG,SCHNAUZER,UNKNOWN,0,BODY,yes
DOG,'SHIH TZU',FEMALE,3,BODY,no
DOG,'MIN PIN',UNKNOWN,1,HEAD,yes
DOG,BEAGLE,FEMALE,1,UNKNOWN,yes
DOG,ROTTWEILER,MALE,1,UNKNOWN,no
DOG,'YORKSHIRE TERRIER',FEMALE,1,HEAD,no
DOG,WESTIE,FEMALE,0,BODY,no
DOG,MALTASE,MALE,3,BODY,no
DOG,'BORDER COLLIE M',MALE,1,UNKNOWN,yes
DOG,'AAUST. TERR.',FEMALE,1,BODY,yes
DOG,HUSKY,MALE,1,BODY,yes
DOG,SHAR-PEI,UNKNOWN,1,BODY,no
DOG,BOXER,MALE,3,UNKNOWN,yes
DOG,ROTTWEILER,FEMALE,1,UNKNOWN,no
DOG,'BLUE HEELER',MALE,1,BODY,yes
DOG,'BICHON FRISE',UNKNOWN,0,HEAD,yes
DOG,CATAHOULA,FEMALE,0,BODY,no
DOG,'BICHON FRESE',MALE,1,BODY,yes
DOG,'BORDER COLLIE',UNKNOWN,3,BODY,no
DOG,'BORDER COLLIE',FEMALE,1,BODY,yes
DOG,'CANE CORSO',UNKNOWN,0,HEAD,yes
DOG,'GERM SHEPHERD',FEMALE,3,UNKNOWN,no
DOG,'IRISH SETTER',MALE,1,BODY,yes
DOG,'LABRADOR RETRIV',FEMALE,1,BODY,yes
DOG,PYRENES,MALE,1,HEAD,yes
DOG,'SAINT BERNARD',MALE,0,BODY,no
DOG,'YORKSHIRE TERRIER',UNKNOWN,1,BODY,no
DOG,'LHASA APSO',UNKNOWN,0,UNKNOWN,yes
DOG,'ALASK. MALAMUTE',MALE,0,BODY,no
DOG,'GOLD RETRIEVER',FEMALE,1,HEAD,no
DOG,'AMER. BULL DOG',MALE,0,HEAD,no
DOG,'CANE CORSO',MALE,0,BODY,no
DOG,'GERM SHEPHERD',UNKNOWN,0,UNKNOWN,yes
DOG,MASTIF,MALE,1,UNKNOWN,no
DOG,'BOSTON TERRIER',UNKNOWN,0,HEAD,no
DOG,'BORDER COLLIE',UNKNOWN,0,BODY,yes
DOG,CHICHAUHUA,MALE,1,BODY,no
DOG,'GERM SHEPHERD',UNKNOWN,1,HEAD,yes
DOG,'AMER. BULL DOG',MALE,3,BODY,yes
DOG,BEAGLE,MALE,3,HEAD,yes
DOG,'AMER. BULL DOG',MALE,1,UNKNOWN,no
DOG,'ALASK. MALAMUTE',MALE,1,BODY,yes
DOG,'GREAT DANE',FEMALE,0,BODY,no
DOG,'ENGLISH BULLDOG',MALE,1,HEAD,no
DOG,'GERM SHEPHERD',UNKNOWN,1,BODY,no
DOG,UNKNOWN,FEMALE,1,BODY,yes
DOG,POMERANIAN,MALE,1,HEAD,yes
DOG,'SHIH TZU',MALE,0,BODY,no
DOG,'CHOW CHOW',MALE,0,HEAD,yes
DOG,'GREAT DANE',MALE,3,HEAD,yes
DOG,DOTSON,MALE,1,UNKNOWN,no
DOG,'RAT TERRIER',FEMALE,3,BODY,yes
DOG,DOTSON,MALE,1,BODY,no
DOG,'MIN PIN',MALE,1,BODY,yes
DOG,'BULL DOG',UNKNOWN,0,BODY,yes
DOG,'CHOW CHOW',UNKNOWN,0,HEAD,yes
DOG,'GOLD RETRIEVER',UNKNOWN,3,BODY,no
DOG,SCHNAUZER,FEMALE,0,BODY,no
DOG,SCHNAUZER,MALE,3,UNKNOWN,no
DOG,PEKINGESE,MALE,0,BODY,no
DOG,'BASSET HOUND',FEMALE,3,UNKNOWN,yes
DOG,'MIN PIN',MALE,0,HEAD,yes
DOG,SCHNAUZER,FEMALE,1,HEAD,no
DOG,PUG,MALE,0,HEAD,no
DOG,WESTIE,MALE,3,BODY,no
DOG,'BORDER COLLIE',MALE,1,HEAD,yes
DOG,BULLMASTIFF,MALE,0,BODY,no
DOG,'SHIH TZU',MALE,0,HEAD,no
DOG,GREYHOUND,UNKNOWN,1,BODY,no
DOG,'COCKER SPAINEL',MALE,1,BODY,no
DOG,DACHSHUND,MALE,3,BODY,yes
DOG,'FOX TERRIER',MALE,3,BODY,no
DOG,'BULL DOG',UNKNOWN,0,UNKNOWN,yes
DOG,DOTSON,FEMALE,1,BODY,yes
DOG,HUSKY,FEMALE,0,HEAD,no
DOG,'GOLD RETRIEVER',MALE,3,BODY,yes
DOG,'SIBERAN HUSKY',FEMALE,1,BODY,yes
DOG,'BASSET HOUND',UNKNOWN,0,HEAD,yes
DOG,'BASSET HOUND',MALE,1,HEAD,no
DOG,'AM BULLDOG',MALE,1,BODY,no
DOG,MALTASE,MALE,3,HEAD,yes
DOG,'SHEEP DOG',FEMALE,1,BODY,yes
DOG,'ENGLISH SHEPARD',MALE,1,HEAD,yes
DOG,'PIT BULL',FEMALE,0,HEAD,yes
DOG,'SHIH TZU',UNKNOWN,1,BODY,no
DOG,HUSKY,FEMALE,0,BODY,yes
DOG,'ALASK. MALAMUTE',FEMALE,0,BODY,no
DOG,WESTIE,MALE,1,BODY,yes
DOG,SCHNAUZER,FEMALE,3,BODY,no
DOG,SCHNAUZER,FEMALE,1,BODY,no
DOG,BOXER,FEMALE,0,HEAD,no
DOG,HUSKY,FEMALE,1,BODY,yes
DOG,'YORKSHIRE TERRIER',MALE,1,BODY,yes
DOG,'LHASA APSO',MALE,1,BODY,yes
DOG,DACHSHUND,MALE,1,UNKNOWN,yes
DOG,BOXER,FEMALE,0,UNKNOWN,yes
DOG,'ENG. MASTIFF',MALE,1,HEAD,yes
DOG,MASTIF,MALE,0,BODY,no
DOG,PUG,MALE,3,HEAD,yes
DOG,'GREAT DANE',MALE,0,BODY,no
DOG,WESTIE,MALE,1,UNKNOWN,yes
DOG,'AAUST. TERR.',FEMALE,3,BODY,yes
DOG,'GREAT PYRENEESE',FEMALE,1,BODY,yes
DOG,SHAR-PEI,FEMALE,0,HEAD,no
CAT,UNKNOWN,FEMALE,0,HEAD,yes
DOG,'PIT BULL',MALE,3,UNKNOWN,yes
DOG,'BLACK LAB',UNKNOWN,0,BODY,yes
DOG,'SCOTTISH TER.',MALE,0,BODY,no
DOG,SCHNAUZER,MALE,1,UNKNOWN,no
DOG,'AAUST. TERR.',MALE,0,HEAD,yes
DOG,'BLACK LAB',MALE,1,UNKNOWN,no
DOG,SHAR-PEI,FEMALE,0,BODY,no
DOG,'BLACK LAB',FEMALE,1,HEAD,no
DOG,'COCKER SPAINEL',MALE,3,BODY,no
DOG,'LAKELAND TER.',MALE,1,HEAD,yes
DOG,'BULL DOG',FEMALE,1,BODY,yes
DOG,'CHOW CHOW',MALE,0,BODY,no
DOG,WESTIE,MALE,3,HEAD,yes
DOG,'ENGLISH SETTER',MALE,3,BODY,no
DOG,UNKNOWN,MALE,1,UNKNOWN,yes
DOG,PUG,FEMALE,1,UNKNOWN,yes
DOG,'YORKSHIRE TERRIER',UNKNOWN,1,HEAD,no
DOG,'BORDER COLLIE',UNKNOWN,3,UNKNOWN,no
DOG,POMERANIAN,MALE,3,BODY,no
DOG,'LABRADOR RETRIV',MALE,3,HEAD,yes
DOG,'COON HOUND',MALE,1,HEAD,no
DOG,HUSKY,UNKNOWN,0,HEAD,no
DOG,'ENGLISH BULLDOG',FEMALE,3,HEAD,no
DOG,DOBERMAN,MALE,0,HEAD,no
DOG,CHICHAUHUA,FEMALE,3,HEAD,yes
DOG,POMERANIAN,FEMALE,1,BODY,yes
DOG,CHICHAUHUA,FEMALE,3,BODY,no
DOG,'BORDER COLLIE M',FEMALE,0,HEAD,no
DOG,ROTTWEILER,MALE,0,HEAD,no
DOG,'BLOOD HOUND',UNKNOWN,1,BODY,no
DOG,PUG,MALE,1,BODY,no
DOG,SHAR-PEI,MALE,0,BODY,no
DOG,'BOSTON TERRIER',FEMALE,1,HEAD,no
DOG,HUSKY,FEMALE,1,HEAD,no
DOG,ROTTWEILER,MALE,0,HEAD,no
DOG,'BRITNEY SPANIEL',UNKNOWN,3,BODY,no
DOG,BEAGLE,FEMALE,1,BODY,yes
DOG,DOTSON,MALE,0,BODY,no
DOG,'CHOCOLATE LAB.',UNKNOWN,0,BODY,yes
DOG,'CHOW CHOW',UNKNOWN,0,BODY,yes
DOG,SCHNAUZER,FEMALE,0,BODY,no
DOG,'COON HOUND',MALE,0,HEAD,no
DOG,POODLE,UNKNOWN,0,HEAD,yes
DOG,BULLMASTIFF,MALE,1,BODY,no
DOG,MASTIF,MALE,0,BODY,no
DOG,'COON HOUND',FEMALE,1,BODY,yes
DOG,COCKAPOO,MALE,3,HEAD,yes
DOG,ROTTWEILER,MALE,1,HEAD,no
DOG,SAMOYED,MALE,1,BODY,yes
DOG,'YORKSHIRE TERRIER',MALE,1,HEAD,yes
DOG,'BOX TERRIER',MALE,0,BODY,no
DOG,'GOLD RETRIEVER',MALE,1,HEAD,yes
DOG,POODLE,FEMALE,1,UNKNOWN,no
DOG,'CATTLE DOG',MALE,1,HEAD,no
DOG,DACHSHUND,FEMALE,1,HEAD,yes
DOG,'YORKSHIRE TERRIER',UNKNOWN,0,BODY,yes
DOG,'AM BULLDOG',MALE,1,UNKNOWN,no
DOG,'BASSET HOUND',UNKNOWN,1,HEAD,no
DOG,DOBERMAN,MALE,3,BODY,yes
DOG,'LABRADOR RETRIV',FEMALE,0,BODY,yes
DOG,ROTTWEILER,FEMALE,0,BODY,no
DOG,DACHSHUND,FEMALE,0,BODY,yes
DOG,'AAUST. TERR.',FEMALE,0,HEAD,no
DOG,'SHIH TZU',MALE,0,BODY,no
DOG,'SHIH TZU',MALE,3,BODY,yes
DOG,'BORDER COLLIE',UNKNOWN,0,HEAD,yes
DOG,'ENGLISH BULLDOG',MALE,0,BODY,no
DOG,WEIMARANER,UNKNOWN,3,BODY,no
DOG,'BOSTON TERRIER',MALE,0,BODY,yes
DOG,MALTASE,MALE,1,BODY,no
DOG,'GERM SHEPHERD',FEMALE,3,BODY,no
DOG,'AM BULLDOG',UNKNOWN,0,BODY,yes
DOG,'BORDER COLLIE M',UNKNOWN,0,UNKNOWN,yes
DOG,'AMER. BULL DOG',MALE,0,BODY,yes
DOG,'SHIH TZU',FEMALE,1,HEAD,no
DOG,'SAINT BERNARD',MALE,1,BODY,yes
DOG,'LABRADOR RETRIV',UNKNOWN,3,BODY,no
DOG,WEIMARANER,UNKNOWN,1,BODY,no
DOG,BASANJI,MALE,1,BODY,yes
DOG,'BLUE HEELER',MALE,3,HEAD,yes
DOG,CHICHAUHUA,FEMALE,0,BODY,no
DOG,'SIBERAN HUSKY',UNKNOWN,0,HEAD,yes
DOG,'ENGLISH SHEPARD',FEMALE,1,BODY,yes
DOG,SHELTIE,MALE,1,HEAD,yes
DOG,SPITZ,MALE,3,HEAD,yes
DOG,POODLE,MALE,3,BODY,no
DOG,BEAGLE,FEMALE,0,HEAD,no
DOG,WESTIE,UNKNOWN,0,BODY,yes
DOG,'LABRADOR RETRIV',MALE,3,UNKNOWN,yes
DOG,'GREAT PYRENEESE',MALE,1,BODY,yes
DOG,'SAINT BERNARD',MALE,1,HEAD,yes
DOG,'GOLD RETRIEVER',FEMALE,3,BODY,no
DOG,'AM BULLDOG',MALE,1,HEAD,yes
DOG,'BULL DOG',MALE,1,BODY,no
DOG,'LABRADOR RETRIV',UNKNOWN,1,BODY,no
DOG,'CANE CORSO',MALE,1,BODY,yes
DOG,'LABRADOR RETRIV',MALE,0,UNKNOWN,yes
DOG,'SHIH TZU',UNKNOWN,1,HEAD,no
DOG,POODLE,UNKNOWN,1,BODY,no
DOG,'BLOOD HOUND',MALE,0,BODY,no
DOG,UNKNOWN,MALE,2,BODY,yes
DOG,MALTASE,FEMALE,0,BODY,no
DOG,'GREAT DANE',MALE,1,HEAD,no
DOG,UNKNOWN,UNKNOWN,0,HEAD,yes
DOG,BOXER,UNKNOWN,1,BODY,no
DOG,'FOX TERRIER',FEMALE,1,BODY,yes
DOG,'BRITNEY SPANIEL',FEMALE,1,HEAD,no
DOG,WESTIE,FEMALE,3,BODY,yes
DOG,PUG,MALE,0,BODY,no
DOG,'SIBERAN HUSKY',MALE,1,BODY,yes
DOG,UNKNOWN,MALE,1,BODY,yes
DOG,BOXER,MALE,0,UNKNOWN,yes
DOG,PUG,UNKNOWN,1,BODY,no
DOG,'PIT BULL',MALE,3,HEAD,yes
DOG,'BORDER COLLIE',FEMALE,0,UNKNOWN,no
DOG,'ENGLISH SETTER',MALE,0,BODY,no
DOG,'CANE CORSO',UNKNOWN,0,BODY,yes
DOG,'TOY POODLE',UNKNOWN,0,BODY,yes
DOG,HUSKY,UNKNOWN,0,BODY,yes
DOG,POMERANIAN,MALE,0,UNKNOWN,no
DOG,'BERNESEN MT.',MALE,3,BODY,no
DOG,'CATTLE DOG',MALE,0,BODY,no
DOG,'FRENCH BULLDOG',FEMALE,0,BODY,no
DOG,MALTASE,MALE,1,UNKNOWN,no
DOG,BASANJI,MALE,3,BODY,no
DOG,'AMER. BULL DOG',FEMALE,0,UNKNOWN,no
DOG,'GOLD RETRIEVER',UNKNOWN,1,BODY,no
DOG,'CHOW CHOW',MALE,3,BODY,no
DOG,WESTIE,UNKNOWN,0,UNKNOWN,yes
DOG,'ENGLISH BULLDOG',UNKNOWN,3,BODY,no
DOG,SHELTIE,FEMALE,0,BODY,no
DOG,CATAHOULA,MALE,0,HEAD,yes
DOG,'ENGLISH BULLDOG',FEMALE,3,BODY,yes
DOG,'CHOW CHOW',UNKNOWN,1,HEAD,no
DOG,OTHER,FEMALE,1,BODY,yes
DOG,'SAINT BERNARD',MALE,3,UNKNOWN,no
DOG,POMERANIAN,FEMALE,1,HEAD,no
DOG,'ENGLISH BULLDOG',FEMALE,0,BODY,no
DOG,'BOSTON TERRIER',MALE,3,BODY,yes
DOG,'BORDER COLLIE',FEMALE,0,BODY,no
DOG,DOTSON,UNKNOWN,1,HEAD,no
DOG,'AM BULLDOG',MALE,0,HEAD,no
DOG,'CANE CORSO',FEMALE,1,BODY,yes
DOG,'LABRADOR RETRIV',FEMALE,0,HEAD,no
DOG,'IRISH SETTER',FEMALE,3,HEAD,no
DOG,'BLOOD HOUND',MALE,1,HEAD,no
DOG,'YORKSHIRE TERRIER',FEMALE,0,BODY,yes
DOG,'GOLD RETRIEVER',MALE,3,HEAD,yes
DOG,DACHSHUND,FEMALE,1,HEAD,yes
DOG,'BLACK LAB',FEMALE,0,BODY,no
DOG,GREYHOUND,MALE,1,HEAD,no
DOG,DACHSHUND,FEMALE,0,HEAD,no
DOG,'BLOOD HOUND',FEMALE,1,BODY,yes
DOG,'ENGLISH SHEPARD',MALE,1,BODY,yes
DOG,'BULL DOG',MALE,0,BODY,no
DOG,'COCKER SPAINEL',MALE,0,BODY,no
DOG,'BASSET HOUND',MALE,3,HEAD,no
DOG,OTHER,FEMALE,0,HEAD,no
DOG,'BOSTON TERRIER',MALE,1,BODY,yes
DOG,SCHNAUZER,MALE,0,HEAD,no
DOG,'BLACK LAB',UNKNOWN,0,HEAD,yes
DOG,'COCKER SPAINEL',FEMALE,0,BODY,no
FERRET,UNKNOWN,UNKNOWN,1,BODY,yes
DOG,ROTTWEILER,UNKNOWN,1,BODY,no
DOG,'SIBERAN HUSKY',MALE,1,HEAD,no
DOG,'BLACK LAB',MALE,0,BODY,no
DOG,BEAGLE,UNKNOWN,1,UNKNOWN,no
DOG,'GREAT DANE',FEMALE,1,BODY,yes
DOG,BASANJI,FEMALE,1,UNKNOWN,yes
DOG,'GREAT PYRENEESE',MALE,1,HEAD,yes
DOG,'BLUE HEELER',MALE,0,HEAD,no
DOG,SHAR-PEI,FEMALE,1,BODY,yes
DOG,PEKINGESE,MALE,3,BODY,no
DOG,'BLACK LAB',MALE,0,BODY,no
DOG,BASANJI,FEMALE,1,BODY,yes
DOG,'COCKER SPAINEL',MALE,0,BODY,no
DOG,'BASSET HOUND',MALE,0,BODY,no
DOG,'BLUE HEELER',FEMALE,0,HEAD,no
DOG,POODLE,FEMALE,3,BODY,yes
DOG,'BOX TERRIER',MALE,1,BODY,yes
DOG,'CANE CORSO',FEMALE,0,BODY,no
DOG,'LAKELAND TER.',MALE,1,BODY,yes
DOG,HAVANESE,FEMALE,0,BODY,no
DOG,'BLACK LAB',FEMALE,1,BODY,yes
DOG,COLLIE,UNKNOWN,0,UNKNOWN,yes
DOG,BRIARD,FEMALE,3,BODY,yes
DOG,'PIT BULL',MALE,0,HEAD,yes
DOG,BEAGLE,FEMALE,3,BODY,yes
DOG,'FRENCH BULLDOG',MALE,1,BODY,yes
DOG,'AAUST. TERR.',MALE,0,UNKNOWN,no
DOG,'SCOTTISH TER.',MALE,3,BODY,no
DOG,'ENG. MASTIFF',FEMALE,3,HEAD,no
DOG,HAVANESE,MALE,3,HEAD,yes
DOG,'NEW FOUNDLAND',MALE,1,BODY,yes
DOG,'GREAT DANE',MALE,1,BODY,no
DOG,'SHIH TZU',MALE,0,HEAD,no
DOG,'SHIH TZU',FEMALE,1,UNKNOWN,no
DOG,DALMATIAN,FEMALE,0,HEAD,no
DOG,MASTIF,FEMALE,1,BODY,yes
DOG,'COON HOUND',MALE,3,BODY,no
DOG,'CHOW CHOW',FEMALE,1,BODY,no
DOG,'ST BERNARD',MALE,1,HEAD,yes
DOG,'BLUE HEELER',FEMALE,1,UNKNOWN,yes
DOG,'GREAT DANE',FEMALE,1,UNKNOWN,yes
DOG,COLLIE,MALE,1,BODY,yes
DOG,'GERM SHEPHERD',MALE,0,HEAD,yes
DOG,SAMOYED,MALE,3,BODY,no
DOG,'CANE CORSO',MALE,1,HEAD,no
DOG,'GERM SHEPHERD',MALE,0,UNKNOWN,yes
DOG,'FRENCH BULLDOG',MALE,1,HEAD,yes
DOG,'CHOW CHOW',FEMALE,1,HEAD,no
DOG,'BULL DOG',MALE,1,UNKNOWN,no
DOG,'LABRADOR RETRIV',FEMALE,3,HEAD,no
DOG,POODLE,UNKNOWN,0,BODY,yes
DOG,'GERM SHEPHERD',FEMALE,0,BODY,yes
DOG,'SHEEP DOG',UNKNOWN,0,BODY,yes
DOG,'GERM SHEPHERD',UNKNOWN,0,HEAD,yes
DOG,COLLIE,MALE,1,HEAD,yes
DOG,'COON HOUND',FEMALE,0,UNKNOWN,no
DOG,HUSKY,FEMALE,3,BODY,yes
DOG,SHELTIE,FEMALE,1,UNKNOWN,yes
DOG,GREYHOUND,MALE,1,UNKNOWN,yes
DOG,'BASSET HOUND',UNKNOWN,3,BODY,no
DOG,'BASSET HOUND',FEMALE,1,BODY,yes
DOG,PUG,FEMALE,1,HEAD,no
DOG,'BLACK LAB',MALE,1,HEAD,no
DOG,'BOSTON TERRIER',MALE,3,UNKNOWN,yes
DOG,'COON HOUND',UNKNOWN,0,UNKNOWN,yes
DOG,'GOLD RETRIEVER',FEMALE,3,HEAD,no
DOG,'RAT TERRIER',FEMALE,1,BODY,yes
DOG,POODLE,FEMALE,3,UNKNOWN,no
DOG,'CANE CORSO',MALE,0,HEAD,no
DOG,'GREAT PYRENEESE',MALE,3,HEAD,yes
DOG,'CANE CORSO',MALE,1,UNKNOWN,no
DOG,PUG,UNKNOWN,0,HEAD,yes
DOG,'PIT BULL',UNKNOWN,0,UNKNOWN,yes
DOG,GREYHOUND,UNKNOWN,0,BODY,yes
DOG,'AAUST. TERR.',MALE,3,UNKNOWN,yes
DOG,HUSKY,MALE,0,UNKNOWN,no
DOG,ROTTWEILER,FEMALE,3,BODY,no
DOG,'CHOW CHOW',MALE,0,UNKNOWN,yes
DOG,'YORKSHIRE TERRIER',MALE,0,HEAD,no
DOG,'ST BERNARD',FEMALE,1,BODY,yes
DOG,'AM BULLDOG',MALE,0,BODY,no
DOG,'LABRADOR RETRIV',UNKNOWN,3,UNKNOWN,no
DOG,'GERM SHEPHERD',MALE,3,HEAD,yes
DOG,PUG,UNKNOWN,0,UNKNOWN,yes
DOG,COLLIE,FEMALE,1,UNKNOWN,yes
DOG,'BASSET HOUND',MALE,3,BODY,no
DOG,DOTSON,FEMALE,1,HEAD,no
DOG,'WELSH CORGI',MALE,0,BODY,no
DOG,DACHSHUND,UNKNOWN,0,UNKNOWN,yes
DOG,'ENG. MASTIFF',FEMALE,0,HEAD,no
CAT,OTHER,MALE,0,BODY,yes
DOG,'COCKER SPAINEL',MALE,0,UNKNOWN,no
DOG,'GOLDEN LAB',MALE,1,BODY,yes
DOG,DOTSON,MALE,0,UNKNOWN,no
DOG,'TOY FOX TERRIER',UNKNOWN,3,BODY,no
DOG,MALTASE,MALE,0,UNKNOWN,no
DOG,'ENGLISH BULLDOG',FEMALE,3,UNKNOWN,no
DOG,OTHER,MALE,3,HEAD,yes
DOG,'SHEEP DOG',FEMALE,1,HEAD,no
DOG,'BLACK LAB',MALE,3,UNKNOWN,no
DOG,'AAUST. TERR.',FEMALE,1,UNKNOWN,yes
DOG,'TOY POODLE',MALE,1,BODY,yes
DOG,'ST BERNARD',UNKNOWN,0,BODY,yes
DOG,COLLIE,FEMALE,0,BODY,no
DOG,'SHEEP DOG',FEMALE,0,BODY,no
HORSE,UNKNOWN,UNKNOWN,0,UNKNOWN,yes
DOG,COLLIE,MALE,1,UNKNOWN,no
DOG,HUSKY,MALE,1,UNKNOWN,no
DOG,'FOX TERRIER',FEMALE,0,BODY,no
DOG,BEAGLE,MALE,1,HEAD,yes
DOG,OTHER,UNKNOWN,1,UNKNOWN,no
DOG,DACHSHUND,FEMALE,3,BODY,yes
DOG,POMERANIAN,MALE,0,HEAD,no
DOG,'SCOTTISH TER.',MALE,3,UNKNOWN,no
DOG,DOBERMAN,UNKNOWN,0,UNKNOWN,no
DOG,'CHOW CHOW',FEMALE,1,UNKNOWN,no
RACCOON,UNKNOWN,UNKNOWN,0,UNKNOWN,yes
DOG,'RED HEELER',MALE,0,BODY,no
DOG,BEAGLE,MALE,3,UNKNOWN,yes
DOG,'BASSET HOUND',MALE,1,UNKNOWN,no
DOG,'AIREDALE TER.',FEMALE,1,UNKNOWN,yes
DOG,'WEINER DOG',FEMALE,1,BODY,yes
DOG,MALAMUTE,FEMALE,0,UNKNOWN,no
DOG,'SHIH TZU',UNKNOWN,0,HEAD,yes
DOG,'GOLD RETRIEVER',UNKNOWN,1,UNKNOWN,no
DOG,'IRISH SPANIEL',FEMALE,3,HEAD,no
DOG,'COCKER SPAINEL',MALE,1,HEAD,yes
DOG,'ENGLISH BULLDOG',FEMALE,1,UNKNOWN,no
DOG,'BULL DOG',MALE,3,HEAD,no
DOG,MALTASE,UNKNOWN,0,UNKNOWN,yes
DOG,'AMER. BULL DOG',FEMALE,3,UNKNOWN,yes
DOG,PUG,MALE,0,UNKNOWN,no
DOG,AKITA,UNKNOWN,0,HEAD,yes
DOG,BESINJI,MALE,1,BODY,yes
DOG,'SHIH TZU',UNKNOWN,0,UNKNOWN,no
DOG,ROTTWEILER,MALE,0,BODY,no
DOG,POODLE,MALE,3,UNKNOWN,no
DOG,BEAGLE,FEMALE,2,BODY,yes
DOG,'GOLD RETRIEVER',FEMALE,0,HEAD,no
DOG,'BLACK LAB',MALE,3,BODY,no
DOG,'AM. ESKIMO',MALE,3,BODY,no
DOG,POMERANIAN,UNKNOWN,0,UNKNOWN,yes
DOG,CORGI,FEMALE,1,BODY,yes
DOG,'CATTLE DOG',MALE,1,UNKNOWN,yes
DOG,'BOSTON TERRIER',FEMALE,0,UNKNOWN,no
DOG,MALTASE,FEMALE,3,BODY,yes
DOG,'PIT BULL',FEMALE,3,HEAD,yes
DOG,DOBERMAN,MALE,1,HEAD,no
DOG,'BORDER COLLIE M',MALE,0,BODY,no
DOG,'CHOW CHOW',UNKNOWN,0,UNKNOWN,no
DOG,CORGI,MALE,1,BODY,yes
DOG,'COCKER SPAINEL',UNKNOWN,3,HEAD,yes
DOG,POMERANIAN,UNKNOWN,1,HEAD,no
DOG,SCHNAUZER,UNKNOWN,1,BODY,no
DOG,COLLIE,MALE,3,UNKNOWN,no
DOG,'GOLD RETRIEVER',FEMALE,1,UNKNOWN,no
DOG,'TOY FOX TERRIER',MALE,0,HEAD,yes
DOG,HAVANESE,MALE,0,HEAD,yes
DOG,'FOX TERRIER',UNKNOWN,0,UNKNOWN,yes
DOG,BEAGLE,MALE,0,HEAD,no
DOG,'CANE CORSO',FEMALE,0,BODY,no
DOG,WEIMARANER,MALE,3,UNKNOWN,no
DOG,'WELSH CORGI',MALE,1,UNKNOWN,yes
DOG,HEELER,MALE,1,HEAD,no
DOG,POODLE,FEMALE,0,UNKNOWN,no
DOG,SCHNAUZER,MALE,0,UNKNOWN,no
BAT,UNKNOWN,UNKNOWN,0,HEAD,no
DOG,BULLMASTIFF,MALE,0,HEAD,no
DOG,SCHNAUZER,MALE,0,BODY,no
DOG,CHICHAUHUA,FEMALE,3,UNKNOWN,no
DOG,'COCKER SPAINEL',MALE,0,HEAD,no
DOG,'AM. ESKIMO',MALE,1,BODY,yes
DOG,'CANE CORSO',MALE,3,BODY,no
DOG,'ALASK. MALAMUTE',MALE,1,HEAD,no
DOG,HUSKY,MALE,0,BODY,no
DOG,'GERM SHEPHERD',UNKNOWN,1,UNKNOWN,yes
DOG,'MIN PIN',FEMALE,1,UNKNOWN,yes
RACCOON,UNKNOWN,UNKNOWN,0,UNKNOWN,yes
DOG,CHICHAUHUA,MALE,0,UNKNOWN,yes
DOG,'BEARDED COLLIE',FEMALE,3,BODY,yes
HORSE,UNKNOWN,MALE,1,BODY,yes
DOG,'COON HOUND',UNKNOWN,1,BODY,no
DOG,HUSKY,UNKNOWN,3,BODY,no
DOG,GREYHOUND,MALE,0,HEAD,no
DOG,UNKNOWN,FEMALE,3,UNKNOWN,yes
DOG,'MIN PIN',MALE,0,HEAD,yes
DOG,BEAGLE,MALE,1,UNKNOWN,yes
DOG,CHICHAUHUA,UNKNOWN,0,UNKNOWN,no
DOG,'CHOW CHOW',MALE,3,UNKNOWN,yes
DOG,'GOLD RETRIEVER',UNKNOWN,0,UNKNOWN,yes
DOG,'SIBERAN HUSKY',UNKNOWN,0,BODY,yes
DOG,CORGI,MALE,3,BODY,no
DOG,OTHER,MALE,3,BODY,yes
DOG,HUSKY,FEMALE,3,HEAD,no
DOG,'TOY POODLE',UNKNOWN,1,UNKNOWN,no
DOG,OTHER,MALE,0,HEAD,no
DOG,'BORDER COLLIE',MALE,1,UNKNOWN,no
DOG,'PIT BULL',MALE,3,UNKNOWN,yes
DOG,'GOLD RETRIEVER',MALE,3,UNKNOWN,yes
DOG,OTHER,FEMALE,1,UNKNOWN,yes
DOG,'BICHON FRESE',MALE,0,UNKNOWN,no
DOG,DACHSHUND,MALE,3,UNKNOWN,yes
DOG,'FOX TERRIER',MALE,1,HEAD,yes
CAT,UNKNOWN,FEMALE,1,UNKNOWN,yes
DOG,'YORKSHIRE TERRIER',UNKNOWN,0,UNKNOWN,yes
DOG,'CATTLE DOG',MALE,1,BODY,yes
DOG,'SCOTTISH TER.',FEMALE,3,HEAD,no
DOG,ROTTWEILER,MALE,3,BODY,no
DOG,'SIBERAN HUSKY',FEMALE,3,BODY,yes
DOG,BOUVIER,MALE,3,BODY,no
DOG,SPITZ,MALE,1,BODY,yes
DOG,'ENGLISH BULLDOG',MALE,3,UNKNOWN,no
DOG,WEIMARANER,MALE,3,BODY,no
DOG,'PIT BULL',FEMALE,3,BODY,yes
DOG,'FOX TERRIER',FEMALE,3,BODY,yes
DOG,BULLMASTIFF,FEMALE,0,BODY,no
DOG,'RAT TERRIER',MALE,0,UNKNOWN,no
DOG,PUG,MALE,1,HEAD,yes
DOG,'CATTLE DOG',MALE,3,HEAD,yes
DOG,'MIN PIN',MALE,0,BODY,no
DOG,'GOLDEN LAB',MALE,1,HEAD,no
DOG,'COON HOUND',MALE,0,BODY,no
DOG,'BULL DOG',MALE,0,HEAD,no
DOG,'CATTLE DOG',UNKNOWN,0,HEAD,yes
DOG,'BULL DOG',UNKNOWN,1,HEAD,no
DOG,'ENGLISH SETTER',UNKNOWN,0,HEAD,yes
DOG,'YORKSHIRE TERRIER',MALE,3,BODY,yes
DOG,'ENGLISH SHEPARD',FEMALE,0,BODY,no
DOG,'YORKSHIRE TERRIER',MALE,0,UNKNOWN,yes
DOG,DALMATIAN,FEMALE,3,BODY,yes
DOG,'BORDER COLLIE',MALE,3,UNKNOWN,no
DOG,'AMER. BULL DOG',MALE,1,BODY,yes
DOG,'BOSTON TERRIER',MALE,1,HEAD,yes
DOG,CHICHAUHUA,MALE,0,HEAD,yes
DOG,DOBERMAN,UNKNOWN,1,UNKNOWN,no
DOG,ROTTWEILER,FEMALE,1,HEAD,no
DOG,CATAHOULA,FEMALE,1,BODY,yes
DOG,BEAGLE,FEMALE,3,UNKNOWN,yes
DOG,'STAN POODLE',FEMALE,1,UNKNOWN,yes
DOG,POMERANIAN,UNKNOWN,0,BODY,yes
DOG,BULLMASTIFF,MALE,3,BODY,no
DOG,BOXER,UNKNOWN,1,UNKNOWN,no
DOG,'GERM SHEPHERD',MALE,0,UNKNOWN,yes
DOG,'BICHON FRISE',FEMALE,1,BODY,yes
DOG,'AAUST. TERR.',MALE,0,HEAD,yes
DOG,'ENGLISH BULLDOG',MALE,3,BODY,no
DOG,'BOSTON TERRIER',UNKNOWN,3,UNKNOWN,no
FERRET,UNKNOWN,UNKNOWN,1,UNKNOWN,yes
CAT,UNKNOWN,UNKNOWN,3,BODY,no
DOG,'SIBERAN HUSKY',MALE,0,HEAD,yes
DOG,'BORDER COLLIE',FEMALE,3,BODY,yes
DOG,'YORKSHIRE TERRIER',UNKNOWN,3,BODY,no
DOG,DOTSON,UNKNOWN,1,BODY,no
DOG,GREYHOUND,UNKNOWN,0,HEAD,yes
DOG,DACHSHUND,UNKNOWN,1,BODY,no
DOG,CHICHAUHUA,MALE,3,UNKNOWN,no
DOG,CORGI,MALE,1,UNKNOWN,yes
DOG,COLLIE,MALE,3,HEAD,yes
DOG,'AAUST. TERR.',UNKNOWN,0,BODY,yes
DOG,'BLOOD HOUND',MALE,1,BODY,yes
DOG,'BLACK LAB',FEMALE,0,BODY,no
DOG,DOBERMAN,UNKNOWN,0,HEAD,no
DOG,'RAT TERRIER',UNKNOWN,3,HEAD,yes
DOG,'LABRADOR RETRIV',FEMALE,3,HEAD,no
DOG,WEIMARANER,FEMALE,0,HEAD,no
DOG,CHICHAUHUA,UNKNOWN,3,HEAD,yes
DOG,UNKNOWN,UNKNOWN,1,HEAD,yes
DOG,CHICHAUHUA,FEMALE,3,BODY,no
DOG,'AAUST. TERR.',UNKNOWN,1,HEAD,yes
DOG,POODLE,UNKNOWN,1,UNKNOWN,no
DOG,'SIBERAN HUSKY',UNKNOWN,0,UNKNOWN,yes
DOG,BEAGLE,UNKNOWN,3,UNKNOWN,no
DOG,'COCKER SPAINEL',MALE,3,HEAD,yes
DOG,SCHNAUZER,MALE,0,BODY,no
DOG,'LABRADOR RETRIV',UNKNOWN,1,UNKNOWN,no
FERRET,UNKNOWN,FEMALE,0,BODY,yes
DOG,AKITA,MALE,1,UNKNOWN,no
DOG,'SHIH TZU',MALE,0,UNKNOWN,no
DOG,'BULL DOG',MALE,0,BODY,no
DOG,DOBERMAN,UNKNOWN,3,UNKNOWN,no
DOG,MASTIF,UNKNOWN,1,UNKNOWN,no
DOG,'GREAT DANE',MALE,1,BODY,no
DOG,'ENGLISH BULLDOG',MALE,0,HEAD,no
DOG,DACHSHUND,FEMALE,0,BODY,yes
DOG,'BULL DOG',MALE,1,HEAD,no
DOG,'BLUE HEELER',MALE,1,UNKNOWN,yes
DOG,'BICHON FRESE',FEMALE,1,BODY,yes
DOG,MASTIF,FEMALE,0,BODY,no
DOG,BULLMASTIFF,MALE,0,UNKNOWN,no
DOG,'AAUST. TERR.',FEMALE,0,HEAD,no
DOG,WESTIE,FEMALE,1,UNKNOWN,yes
DOG,'BORDER COLLIE',FEMALE,1,HEAD,no
CAT,BEAGLE,FEMALE,1,UNKNOWN,yes
DOG,'BULL DOG',FEMALE,1,UNKNOWN,yes
DOG,CHICHAUHUA,FEMALE,1,UNKNOWN,yes
FERRET,UNKNOWN,UNKNOWN,0,UNKNOWN,yes
DOG,HUSKY,FEMALE,1,UNKNOWN,yes
DOG,'FRENCH BULLDOG',UNKNOWN,0,BODY,yes
DOG,SHELTIE,MALE,3,HEAD,yes
DOG,'PIT BULL',MALE,0,UNKNOWN,yes
DOG,'SIBERAN HUSKY',FEMALE,0,BODY,no
CAT,UNKNOWN,MALE,0,BODY,yes
DOG,'BICHON FRESE',MALE,0,BODY,no
DOG,'PIT BULL',MALE,3,BODY,yes
DOG,DOBERMAN,MALE,1,BODY,yes
DOG,MASTIF,MALE,3,BODY,no
DOG,WEIMARANER,UNKNOWN,3,UNKNOWN,no
DOG,'BLACK LAB',MALE,1,BODY,no
DOG,'BOX TERRIER',FEMALE,1,UNKNOWN,yes
DOG,MASTIF,FEMALE,3,HEAD,no
DOG,'AM BULLDOG',FEMALE,0,BODY,no
DOG,'AMER FOX HOUND',MALE,0,BODY,no
HORSE,UNKNOWN,UNKNOWN,0,HEAD,yes
DOG,'GOLD RETRIEVER',FEMALE,3,UNKNOWN,no
DOG,'IRISH WOLFHOUND',MALE,1,BODY,yes
DOG,DACHSHUND,FEMALE,3,UNKNOWN,yes
DOG,DOTSON,MALE,3,HEAD,no
DOG,'ENGLISH BULLDOG',FEMALE,0,HEAD,no
DOG,SAMOYED,MALE,0,UNKNOWN,no
DOG,CHICHAUHUA,FEMALE,1,HEAD,yes
DOG,MALAMUTE,FEMALE,0,BODY,no
DOG,HEELER,MALE,1,BODY,yes
DOG,ROTTWEILER,FEMALE,3,HEAD,no
DOG,'COON HOUND',FEMALE,3,UNKNOWN,yes
DOG,'BASSET HOUND',FEMALE,1,HEAD,no
DOG,DOBERMAN,FEMALE,0,BODY,no
DOG,AKITA,MALE,3,BODY,no
CAT,UNKNOWN,MALE,1,UNKNOWN,yes
DOG,'ALASK. MALAMUTE',MALE,0,BODY,no
DOG,'AAUST. TERR.',FEMALE,1,HEAD,no
DOG,WEIMARANER,UNKNOWN,0,BODY,yes
DOG,DOBERMAN,FEMALE,1,HEAD,no
DOG,DOBERMAN,MALE,0,BODY,yes
DOG,'BOSTON TERRIER',MALE,3,HEAD,no
DOG,GREYHOUND,MALE,0,HEAD,no
DOG,HAVANESE,MALE,0,BODY,no
DOG,CORGI,MALE,0,BODY,no
DOG,'GOLDEN LAB',MALE,0,HEAD,yes
DOG,UNKNOWN,FEMALE,1,BODY,yes
DOG,UNKNOWN,UNKNOWN,0,BODY,yes
DOG,UNKNOWN,MALE,0,BODY,yes
DOG,UNKNOWN,MALE,0,BODY,yes
DOG,UNKNOWN,FEMALE,0,HEAD,yes
DOG,UNKNOWN,FEMALE,0,HEAD,yes
CAT,UNKNOWN,UNKNOWN,0,HEAD,yes
CAT,UNKNOWN,UNKNOWN,0,HEAD,yes
DOG,UNKNOWN,FEMALE,0,BODY,yes
CAT,UNKNOWN,UNKNOWN,0,BODY,yes
CAT,UNKNOWN,FEMALE,0,BODY,yes
DOG,UNKNOWN,MALE,1,BODY,yes
DOG,UNKNOWN,UNKNOWN,0,HEAD,yes
DOG,UNKNOWN,MALE,1,HEAD,yes
DOG,UNKNOWN,FEMALE,3,BODY,yes
DOG,UNKNOWN,FEMALE,3,BODY,yes
DOG,UNKNOWN,MALE,3,BODY,yes
DOG,UNKNOWN,MALE,3,BODY,yes
CAT,UNKNOWN,MALE,1,BODY,yes
DOG,UNKNOWN,MALE,3,HEAD,yes
DOG,UNKNOWN,MALE,1,HEAD,yes
DOG,UNKNOWN,FEMALE,1,BODY,yes
DOG,UNKNOWN,FEMALE,1,BODY,yes
DOG,UNKNOWN,FEMALE,3,HEAD,yes
DOG,UNKNOWN,MALE,3,HEAD,yes
CAT,UNKNOWN,MALE,1,BODY,yes
CAT,UNKNOWN,MALE,0,BODY,yes
CAT,UNKNOWN,MALE,0,BODY,yes
CAT,UNKNOWN,FEMALE,0,HEAD,yes
CAT,UNKNOWN,FEMALE,0,HEAD,yes
CAT,UNKNOWN,MALE,1,BODY,yes
DOG,UNKNOWN,UNKNOWN,0,BODY,yes
DOG,UNKNOWN,UNKNOWN,0,BODY,yes
CAT,UNKNOWN,FEMALE,1,BODY,yes
DOG,UNKNOWN,UNKNOWN,0,HEAD,yes
CAT,UNKNOWN,MALE,0,HEAD,yes
CAT,UNKNOWN,MALE,0,HEAD,yes
CAT,UNKNOWN,UNKNOWN,0,BODY,yes
DOG,UNKNOWN,MALE,1,BODY,yes
DOG,UNKNOWN,FEMALE,3,BODY,yes
DOG,UNKNOWN,MALE,0,BODY,yes
DOG,UNKNOWN,UNKNOWN,0,BODY,yes
DOG,UNKNOWN,UNKNOWN,0,BODY,yes
DOG,UNKNOWN,MALE,2,BODY,yes
DOG,UNKNOWN,FEMALE,1.722222,BODY,yes
DOG,UNKNOWN,FEMALE,2.859035,BODY,yes
CAT,UNKNOWN,FEMALE,0,BODY,yes
DOG,UNKNOWN,FEMALE,0,HEAD,yes
DOG,UNKNOWN,MALE,3,BODY,yes
CAT,UNKNOWN,MALE,3,BODY,yes
CAT,UNKNOWN,FEMALE,3,BODY,yes
CAT,UNKNOWN,FEMALE,3,BODY,yes
DOG,UNKNOWN,MALE,5.547788,BODY,yes
DOG,UNKNOWN,UNKNOWN,0,BODY,yes
DOG,UNKNOWN,UNKNOWN,0,BODY,yes
DOG,UNKNOWN,FEMALE,3,BODY,yes
DOG,UNKNOWN,FEMALE,3,BODY,yes
DOG,UNKNOWN,FEMALE,0,HEAD,yes
DOG,UNKNOWN,FEMALE,0,HEAD,yes
CAT,UNKNOWN,MALE,1,BODY,yes
CAT,UNKNOWN,MALE,1,BODY,yes
DOG,UNKNOWN,FEMALE,0,BODY,yes
DOG,UNKNOWN,FEMALE,0,BODY,yes
DOG,UNKNOWN,FEMALE,1,HEAD,yes
DOG,UNKNOWN,FEMALE,1,BODY,yes
DOG,UNKNOWN,UNKNOWN,0,BODY,yes
DOG,UNKNOWN,UNKNOWN,0,BODY,yes
DOG,'GERM SHEPHERD',UNKNOWN,0,BODY,no
DOG,'GERM SHEPHERD',UNKNOWN,0,BODY,no
DOG,UNKNOWN,FEMALE,3,BODY,yes
DOG,DACHSHUND,MALE,1,BODY,yes
DOG,'PIT BULL',UNKNOWN,0,BODY,no
DOG,'PIT BULL',UNKNOWN,0,BODY,no
CAT,UNKNOWN,FEMALE,0,BODY,yes
CAT,UNKNOWN,MALE,0,BODY,yes
CAT,UNKNOWN,MALE,0,BODY,yes
DOG,UNKNOWN,MALE,0,BODY,yes
CAT,UNKNOWN,UNKNOWN,0,BODY,yes
CAT,UNKNOWN,UNKNOWN,0,BODY,yes
DOG,'GERM SHEPHERD',MALE,0,UNKNOWN,yes
DOG,'GERM SHEPHERD',MALE,3,BODY,yes
DOG,UNKNOWN,UNKNOWN,0,BODY,yes
DOG,UNKNOWN,MALE,2.959682,BODY,yes
DOG,DACHSHUND,FEMALE,1,BODY,yes
DOG,'PIT BULL',MALE,1,HEAD,yes
DOG,'PIT BULL',MALE,1,HEAD,yes
DOG,'PIT BULL',MALE,0,BODY,yes
DOG,UNKNOWN,MALE,1,BODY,yes
DOG,'PIT BULL',UNKNOWN,0,BODY,no
DOG,UNKNOWN,MALE,1,HEAD,yes
DOG,UNKNOWN,MALE,1,HEAD,yes
DOG,CHICHAUHUA,MALE,0,HEAD,yes
DOG,CHICHAUHUA,MALE,0,HEAD,yes
CAT,UNKNOWN,MALE,0,HEAD,yes
DOG,UNKNOWN,FEMALE,0,BODY,yes
DOG,'PIT BULL',FEMALE,3,HEAD,yes
DOG,'SIBERAN HUSKY',UNKNOWN,0,HEAD,yes
DOG,'SIBERAN HUSKY',UNKNOWN,0,HEAD,yes
DOG,DOBERMAN,MALE,3,BODY,yes
DOG,DOBERMAN,MALE,3,BODY,yes
DOG,UNKNOWN,MALE,1,HEAD,yes
DOG,'PIT BULL',MALE,0,HEAD,yes
DOG,UNKNOWN,UNKNOWN,0,HEAD,yes
DOG,UNKNOWN,FEMALE,0,HEAD,yes
DOG,UNKNOWN,UNKNOWN,0,BODY,yes
DOG,BOXER,FEMALE,3,BODY,yes
DOG,'AAUST. TERR.',MALE,1,BODY,yes
DOG,BOXER,FEMALE,1,BODY,no
DOG,BEAGLE,MALE,1,BODY,yes
DOG,'PIT BULL',MALE,0,BODY,yes
DOG,UNKNOWN,MALE,1,HEAD,yes
DOG,'PIT BULL',UNKNOWN,0,BODY,no
DOG,UNKNOWN,FEMALE,1,BODY,yes
DOG,'GOLD RETRIEVER',MALE,1,BODY,yes
DOG,'GERM SHEPHERD',MALE,3,BODY,yes
DOG,'GERM SHEPHERD',MALE,3,BODY,yes
DOG,'LABRADOR RETRIV',FEMALE,1,BODY,yes
DOG,DACHSHUND,MALE,1,BODY,yes
DOG,'GERM SHEPHERD',MALE,3,BODY,yes
DOG,'PIT BULL',UNKNOWN,0,HEAD,yes
DOG,'PIT BULL',UNKNOWN,0,HEAD,yes
CAT,UNKNOWN,FEMALE,3,BODY,yes
DOG,'AAUST. TERR.',FEMALE,1,BODY,yes
DOG,'PIT BULL',MALE,1,BODY,yes
DOG,'PIT BULL',MALE,1,BODY,yes
DOG,'AAUST. TERR.',UNKNOWN,0,BODY,yes
CAT,UNKNOWN,MALE,1,BODY,yes
DOG,'YORKSHIRE TERRIER',MALE,1,BODY,yes
DOG,'YORKSHIRE TERRIER',MALE,1,BODY,yes
DOG,UNKNOWN,MALE,1,HEAD,yes
DOG,UNKNOWN,MALE,1,HEAD,yes
DOG,DACHSHUND,MALE,1,BODY,yes
DOG,OTHER,MALE,3,BODY,yes
DOG,OTHER,FEMALE,1,BODY,yes
DOG,DACHSHUND,FEMALE,3,HEAD,no
DOG,DACHSHUND,FEMALE,3,HEAD,no
DOG,CHICHAUHUA,FEMALE,0,BODY,no
DOG,CHICHAUHUA,FEMALE,0,BODY,no
CAT,UNKNOWN,MALE,1,BODY,yes
DOG,'AAUST. TERR.',UNKNOWN,0,BODY,yes
DOG,'AAUST. TERR.',UNKNOWN,0,BODY,yes
DOG,OTHER,FEMALE,3,BODY,yes
DOG,'GERM SHEPHERD',MALE,0,BODY,yes
DOG,UNKNOWN,UNKNOWN,0,BODY,yes
CAT,UNKNOWN,MALE,0,BODY,yes
CAT,UNKNOWN,UNKNOWN,0,BODY,yes
DOG,'PIT BULL',MALE,0,UNKNOWN,yes
DOG,'GOLD RETRIEVER',MALE,0,BODY,yes
DOG,'LABRADOR RETRIV',MALE,0,BODY,yes
DOG,'BORDER COLLIE',MALE,0,BODY,no
DOG,DOBERMAN,MALE,3,BODY,yes
DOG,'AAUST. TERR.',MALE,1,BODY,yes
DOG,'GERM SHEPHERD',UNKNOWN,0,BODY,no
DOG,'PIT BULL',FEMALE,0,BODY,yes
DOG,ROTTWEILER,MALE,3,BODY,no
DOG,OTHER,FEMALE,1,BODY,yes
DOG,CHICHAUHUA,FEMALE,0,BODY,no
DOG,CHICHAUHUA,FEMALE,0,BODY,no
DOG,'BOSTON TERRIER',MALE,1,BODY,yes
DOG,'AAUST. TERR.',MALE,1,BODY,yes
DOG,'AAUST. TERR.',MALE,1,BODY,yes
DOG,'AAUST. TERR.',FEMALE,1,BODY,yes
DOG,'GERM SHEPHERD',MALE,0,BODY,yes
DOG,'PIT BULL',MALE,0,BODY,yes
DOG,'PIT BULL',UNKNOWN,0,BODY,no
DOG,'PIT BULL',UNKNOWN,0,BODY,no
DOG,'PIT BULL',FEMALE,1,BODY,yes
DOG,'GERM SHEPHERD',UNKNOWN,0,BODY,no
DOG,'LABRADOR RETRIV',MALE,0,BODY,yes
DOG,UNKNOWN,FEMALE,0,HEAD,yes
DOG,'GOLD RETRIEVER',MALE,1,BODY,yes
DOG,UNKNOWN,FEMALE,1,BODY,yes
DOG,UNKNOWN,FEMALE,1,BODY,yes
DOG,'AAUST. TERR.',MALE,1,BODY,yes
DOG,'GERM SHEPHERD',MALE,1,BODY,yes
DOG,UNKNOWN,FEMALE,3,BODY,yes
CAT,UNKNOWN,MALE,3,BODY,yes
DOG,'AAUST. TERR.',FEMALE,1,BODY,yes
CAT,UNKNOWN,FEMALE,1,BODY,yes
DOG,'GERM SHEPHERD',MALE,1,BODY,yes
DOG,'AAUST. TERR.',UNKNOWN,0,BODY,yes
DOG,'AAUST. TERR.',UNKNOWN,0,BODY,yes
DOG,'LABRADOR RETRIV',UNKNOWN,0,HEAD,yes
DOG,'GERM SHEPHERD',FEMALE,1,BODY,yes
DOG,'GERM SHEPHERD',MALE,3,BODY,yes
DOG,'LABRADOR RETRIV',MALE,1,BODY,yes
DOG,UNKNOWN,MALE,3,BODY,yes
DOG,DACHSHUND,MALE,1,HEAD,yes
DOG,'PIT BULL',UNKNOWN,0,HEAD,yes
DOG,'CHOW CHOW',MALE,0,BODY,no
DOG,'LABRADOR RETRIV',MALE,1,BODY,yes
DOG,'LABRADOR RETRIV',MALE,1,BODY,yes
DOG,'PIT BULL',MALE,0,UNKNOWN,yes
DOG,'LABRADOR RETRIV',MALE,1,BODY,yes
DOG,DOBERMAN,MALE,3,BODY,yes
DOG,DACHSHUND,MALE,1,HEAD,yes
DOG,'AAUST. TERR.',FEMALE,1,BODY,yes
DOG,UNKNOWN,FEMALE,3,HEAD,yes
DOG,BOXER,MALE,0,BODY,yes
DOG,BOXER,MALE,0,BODY,yes
DOG,'YORKSHIRE TERRIER',MALE,1,BODY,yes
DOG,'YORKSHIRE TERRIER',MALE,1,BODY,yes
DOG,UNKNOWN,MALE,1,HEAD,yes
DOG,'PIT BULL',FEMALE,1,BODY,yes
DOG,'AMER. BULL DOG',MALE,3,BODY,yes
DOG,'SHIH TZU',MALE,1,HEAD,no
DOG,'LABRADOR RETRIV',FEMALE,3,HEAD,no
DOG,'LABRADOR RETRIV',FEMALE,3,HEAD,no
DOG,'GERM SHEPHERD',UNKNOWN,0,BODY,no
DOG,UNKNOWN,MALE,1,BODY,yes
DOG,UNKNOWN,MALE,1,BODY,yes
DOG,'AAUST. TERR.',MALE,1,BODY,yes
DOG,'LABRADOR RETRIV',MALE,0,BODY,yes
DOG,'LABRADOR RETRIV',MALE,0,BODY,yes
DOG,'LABRADOR RETRIV',MALE,0,BODY,yes
DOG,DACHSHUND,MALE,3,BODY,yes
DOG,BEAGLE,MALE,3,BODY,yes
DOG,BEAGLE,MALE,3,BODY,yes
DOG,OTHER,FEMALE,1,BODY,yes
DOG,OTHER,FEMALE,1,BODY,yes
DOG,UNKNOWN,MALE,0,HEAD,yes
DOG,UNKNOWN,MALE,0,BODY,yes
DOG,CHICHAUHUA,FEMALE,0,BODY,no
DOG,CHICHAUHUA,FEMALE,0,BODY,no
DOG,'LABRADOR RETRIV',MALE,0,HEAD,yes
DOG,'GERM SHEPHERD',MALE,1,BODY,yes
DOG,DACHSHUND,MALE,1,HEAD,yes
DOG,DACHSHUND,MALE,1,HEAD,yes
DOG,'PIT BULL',MALE,1,HEAD,yes
DOG,'AMER. BULL DOG',MALE,3,BODY,yes
DOG,'AMER. BULL DOG',MALE,3,BODY,yes
DOG,BOXER,FEMALE,3,BODY,yes
DOG,BOXER,FEMALE,0,BODY,no
DOG,BOXER,FEMALE,0,BODY,no
DOG,DACHSHUND,MALE,1,BODY,yes
DOG,'LABRADOR RETRIV',FEMALE,3,HEAD,no
DOG,'GERM SHEPHERD',UNKNOWN,0,BODY,no
DOG,BOXER,MALE,0,BODY,yes
DOG,BEAGLE,MALE,3,BODY,yes
DOG,AKITA,MALE,0,BODY,no
DOG,BEAGLE,FEMALE,1,BODY,yes
DOG,BEAGLE,FEMALE,1,BODY,yes
DOG,'BOSTON TERRIER',MALE,1,BODY,yes
DOG,'BOSTON TERRIER',MALE,1,BODY,yes
DOG,'GERM SHEPHERD',FEMALE,0,BODY,yes
DOG,BEAGLE,FEMALE,1,HEAD,yes
DOG,UNKNOWN,UNKNOWN,0,HEAD,yes
DOG,UNKNOWN,UNKNOWN,0,HEAD,yes
DOG,HUSKY,FEMALE,1,BODY,yes
DOG,HUSKY,FEMALE,1,BODY,yes
DOG,'GERM SHEPHERD',UNKNOWN,0,BODY,no
DOG,'GERM SHEPHERD',UNKNOWN,0,BODY,no
DOG,UNKNOWN,MALE,3,HEAD,yes
DOG,OTHER,FEMALE,3,BODY,yes
DOG,'LABRADOR RETRIV',MALE,3,BODY,yes
DOG,UNKNOWN,MALE,0,BODY,yes
DOG,'CHOW CHOW',MALE,0,BODY,no
DOG,BEAGLE,FEMALE,1,HEAD,yes
DOG,BEAGLE,FEMALE,1,HEAD,yes
DOG,'GERM SHEPHERD',MALE,0,HEAD,yes
DOG,'GERM SHEPHERD',MALE,0,HEAD,yes
DOG,'PIT BULL',MALE,1,HEAD,yes
DOG,BOXER,MALE,1,BODY,yes
DOG,BOXER,MALE,1,BODY,yes
DOG,BEAGLE,FEMALE,1,HEAD,yes
DOG,BEAGLE,FEMALE,1,HEAD,yes
DOG,UNKNOWN,UNKNOWN,0,BODY,yes
DOG,BOXER,MALE,0,BODY,yes
DOG,UNKNOWN,FEMALE,3,HEAD,yes
DOG,'BOSTON TERRIER',MALE,1,HEAD,yes
DOG,'BOSTON TERRIER',MALE,1,HEAD,yes
DOG,'PIT BULL',FEMALE,0,HEAD,yes
DOG,OTHER,MALE,3,BODY,yes
DOG,DACHSHUND,MALE,1,BODY,yes
DOG,DACHSHUND,MALE,1,BODY,yes
DOG,'GOLD RETRIEVER',MALE,1,BODY,yes
DOG,BEAGLE,MALE,3,BODY,yes
DOG,'PIT BULL',MALE,0,HEAD,yes
DOG,'LABRADOR RETRIV',MALE,0,BODY,yes
DOG,UNKNOWN,MALE,1,BODY,yes
DOG,BEAGLE,FEMALE,1,BODY,yes
DOG,'LABRADOR RETRIV',MALE,3,BODY,yes
DOG,'LABRADOR RETRIV',MALE,3,BODY,yes
DOG,'GOLD RETRIEVER',MALE,1,BODY,yes
DOG,'GOLD RETRIEVER',MALE,1,BODY,yes
DOG,'AAUST. TERR.',UNKNOWN,0,BODY,yes
DOG,'AAUST. TERR.',UNKNOWN,0,BODY,yes
DOG,'CHOW CHOW',MALE,0,HEAD,yes
DOG,'LABRADOR RETRIV',MALE,0,BODY,yes
DOG,'LABRADOR RETRIV',FEMALE,1,BODY,yes
DOG,UNKNOWN,FEMALE,3,BODY,yes
DOG,'PIT BULL',FEMALE,0,BODY,yes
DOG,UNKNOWN,MALE,1,HEAD,yes
DOG,'GERM SHEPHERD',MALE,0,BODY,yes
DOG,'GERM SHEPHERD',MALE,0,BODY,yes
DOG,OTHER,FEMALE,1,BODY,yes
DOG,'PIT BULL',MALE,1,HEAD,yes
DOG,OTHER,FEMALE,1,BODY,yes
DOG,UNKNOWN,MALE,3,BODY,yes
DOG,'LABRADOR RETRIV',FEMALE,1,BODY,yes
DOG,'AMER. BULL DOG',MALE,3,BODY,yes
DOG,'AMER. BULL DOG',MALE,3,BODY,yes
DOG,DOBERMAN,MALE,3,BODY,yes
DOG,BOXER,MALE,1,BODY,yes
DOG,UNKNOWN,UNKNOWN,0,HEAD,yes
DOG,DACHSHUND,FEMALE,1,BODY,yes
DOG,DACHSHUND,FEMALE,1,BODY,yes
DOG,BEAGLE,MALE,3,BODY,yes
DOG,DOBERMAN,MALE,3,BODY,yes
DOG,UNKNOWN,FEMALE,0,BODY,yes
DOG,'PIT BULL',MALE,1,HEAD,yes
DOG,'GERM SHEPHERD',MALE,1,BODY,yes
DOG,CHICHAUHUA,MALE,0,HEAD,yes
DOG,CHICHAUHUA,MALE,0,HEAD,yes
DOG,'GERM SHEPHERD',UNKNOWN,0,HEAD,yes
DOG,'GERM SHEPHERD',UNKNOWN,0,HEAD,yes
DOG,OTHER,FEMALE,1,BODY,yes
DOG,'AAUST. TERR.',MALE,1,BODY,yes
DOG,DACHSHUND,MALE,1,HEAD,yes
DOG,UNKNOWN,FEMALE,1,HEAD,yes
DOG,UNKNOWN,FEMALE,1,HEAD,yes
DOG,'GERM SHEPHERD',FEMALE,0,BODY,yes
DOG,'GERM SHEPHERD',FEMALE,0,BODY,yes
DOG,UNKNOWN,MALE,1,BODY,yes
DOG,'PIT BULL',UNKNOWN,0,HEAD,yes
DOG,'PIT BULL',UNKNOWN,0,HEAD,yes
DOG,BOXER,FEMALE,3,BODY,yes
DOG,'AAUST. TERR.',UNKNOWN,0,BODY,yes
DOG,'GERM SHEPHERD',MALE,3,BODY,yes
DOG,BOXER,MALE,0,BODY,yes
DOG,BOXER,MALE,0,BODY,yes
DOG,BEAGLE,MALE,1,BODY,yes
DOG,UNKNOWN,UNKNOWN,0,HEAD,yes
DOG,'PIT BULL',UNKNOWN,0,BODY,no
DOG,'AAUST. TERR.',FEMALE,1,BODY,yes
DOG,'GERM SHEPHERD',FEMALE,1,BODY,yes
DOG,CHICHAUHUA,FEMALE,0,BODY,no
DOG,CHICHAUHUA,FEMALE,0,BODY,no
DOG,BEAGLE,FEMALE,1,BODY,yes
DOG,BEAGLE,FEMALE,1,BODY,yes
DOG,UNKNOWN,MALE,0,BODY,yes
DOG,UNKNOWN,MALE,0,BODY,yes
DOG,UNKNOWN,FEMALE,0,BODY,yes
DOG,UNKNOWN,FEMALE,0,BODY,yes
DOG,OTHER,FEMALE,1,BODY,yes
DOG,DACHSHUND,FEMALE,1,BODY,yes
DOG,'LABRADOR RETRIV',FEMALE,3,HEAD,no
DOG,'PIT BULL',MALE,1,BODY,yes
DOG,'GERM SHEPHERD',UNKNOWN,0,BODY,no
DOG,'GERM SHEPHERD',UNKNOWN,0,BODY,no
CAT,UNKNOWN,FEMALE,1,BODY,yes
DOG,'YORKSHIRE TERRIER',FEMALE,1,BODY,yes
DOG,'YORKSHIRE TERRIER',FEMALE,1,BODY,yes
DOG,'GOLD RETRIEVER',MALE,1,BODY,yes
DOG,'GOLD RETRIEVER',MALE,0,BODY,yes
DOG,'GOLD RETRIEVER',MALE,0,BODY,yes
DOG,UNKNOWN,UNKNOWN,0,HEAD,yes
CAT,UNKNOWN,UNKNOWN,0,HEAD,yes
DOG,CHICHAUHUA,MALE,0,HEAD,yes
DOG,CHICHAUHUA,MALE,0,HEAD,yes
DOG,'CHOW CHOW',MALE,0,BODY,no
DOG,UNKNOWN,UNKNOWN,0,BODY,yes
DOG,UNKNOWN,MALE,3,HEAD,yes
DOG,UNKNOWN,MALE,3,HEAD,yes
DOG,BEAGLE,FEMALE,1,HEAD,yes
DOG,BEAGLE,FEMALE,1,HEAD,yes
DOG,BEAGLE,FEMALE,1,HEAD,yes
DOG,BEAGLE,FEMALE,1,HEAD,yes
DOG,'LABRADOR RETRIV',FEMALE,3,HEAD,no
DOG,DACHSHUND,MALE,1,HEAD,yes
DOG,BEAGLE,FEMALE,1,HEAD,yes
DOG,'LABRADOR RETRIV',FEMALE,3,HEAD,no
DOG,'LABRADOR RETRIV',FEMALE,3,HEAD,no
DOG,'GOLD RETRIEVER',MALE,1,BODY,yes
DOG,CHICHAUHUA,FEMALE,3,HEAD,yes
DOG,UNKNOWN,FEMALE,1,HEAD,yes
DOG,'GERM SHEPHERD',MALE,3,BODY,yes
DOG,'PIT BULL',MALE,0,UNKNOWN,yes
CAT,UNKNOWN,MALE,0,BODY,yes
CAT,UNKNOWN,MALE,0,BODY,yes
DOG,BOXER,FEMALE,3,BODY,yes
DOG,'LABRADOR RETRIV',MALE,1,BODY,yes
DOG,'LABRADOR RETRIV',MALE,1,BODY,yes
DOG,OTHER,MALE,3,BODY,yes
CAT,UNKNOWN,MALE,1,BODY,yes
DOG,CHICHAUHUA,FEMALE,0,BODY,no
DOG,CHICHAUHUA,FEMALE,0,BODY,no
